{
  "ActivitySignConfigs": {
    "1": {
      "Tags": [],
      "bg": "",
      "btn": [],
      "controllerName": "",
      "dayNums": 7,
      "id": 1,
      "name": 0,
      "prefab": "",
      "reward": [
        5,
        6,
        5,
        6,
        5,
        6,
        5
      ],
      "viewName": ""
    },
    "2": {
      "Tags": [],
      "bg": "",
      "btn": [],
      "controllerName": "",
      "dayNums": 7,
      "id": 2,
      "name": 0,
      "prefab": "",
      "reward": [
        5,
        6,
        5,
        6,
        5,
        6,
        5
      ],
      "viewName": ""
    }
  }
}