{
  "BattleMapConfigs": {
    "1": {
      "Tags": [],
      "attPosList": "{\"0\": {\"x\": \"107.55\", \"y\": \"0\", \"z\": \"103\"}, \"1\": {\"x\": \"107.55\", \"y\": \"0\", \"z\": \"100\"}, \"2\": {\"x\": \"107.55\", \"y\": \"0\", \"z\": \"97\"}, \"3\": {\"x\": \"105\", \"y\": \"0\", \"z\": \"103\"}, \"4\": {\"x\": \"105\", \"y\": \"0\", \"z\": \"100\"}, \"5\": {\"x\": \"105\", \"y\": \"0\", \"z\": \"97\"}, \"6\": {\"x\": \"102.45\", \"y\": \"0\", \"z\": \"103\"}, \"7\": {\"x\": \"102.45\", \"y\": \"0\", \"z\": \"100\"}, \"8\": {\"x\": \"102.45\", \"y\": \"0\", \"z\": \"97\"}}",
      "cameraPos": "",
      "defPosList": "{\"0\": {\"x\": \"129.5\", \"y\": \"0\", \"z\": \"103\"}, \"1\": {\"x\": \"129.5\", \"y\": \"0\", \"z\": \"100\"}, \"2\": {\"x\": \"129.5\", \"y\": \"0\", \"z\": \"97\"}, \"3\": {\"x\": \"132\", \"y\": \"0\", \"z\": \"103\"}, \"4\": {\"x\": \"132\", \"y\": \"0\", \"z\": \"100\"}, \"5\": {\"x\": \"132\", \"y\": \"0\", \"z\": \"97\"}, \"6\": {\"x\": \"134.5\", \"y\": \"0\", \"z\": \"103\"}, \"7\": {\"x\": \"134.5\", \"y\": \"0\", \"z\": \"100\"}, \"8\": {\"x\": \"134.5\", \"y\": \"0\", \"z\": \"97\"}}",
      "id": 1,
      "initMoveDistance": 0.0,
      "name": 0,
      "sceneCenterPoint": [
        118.0,
        100.0
      ],
      "sceneHeight": 10.0,
      "scenePath": "",
      "sceneWidth": 8.0
    }
  }
}