{
  "BuildingConfigs": {
    "1": {
      "Tags": [],
      "buildingType": 1,
      "finishType": 2,
      "id": 1,
      "initState": 1,
      "levelId": {
        "0": 1,
        "1": 2,
        "2": 3,
        "3": 4,
        "4": 5,
        "5": 6,
        "6": 7,
        "7": 8,
        "8": 9,
        "9": 10,
        "10": 11
      },
      "maxLevel": 10,
      "type": 1
    },
    "2": {
      "Tags": [],
      "buildingType": 1,
      "finishType": 2,
      "id": 2,
      "initState": 0,
      "levelId": {
        "0": 801,
        "1": 802
      },
      "maxLevel": 1,
      "type": 5
    },
    "3": {
      "Tags": [],
      "buildingType": 1,
      "finishType": 2,
      "id": 3,
      "initState": 0,
      "levelId": {
        "0": 101,
        "1": 102
      },
      "maxLevel": 1,
      "type": 6
    },
    "4": {
      "Tags": [],
      "buildingType": 1,
      "finishType": 1,
      "id": 4,
      "initState": 0,
      "levelId": {
        "0": 401,
        "1": 402,
        "2": 403,
        "3": 404,
        "4": 405,
        "5": 406,
        "6": 407,
        "7": 408,
        "8": 409,
        "9": 410,
        "10": 411
      },
      "maxLevel": 10,
      "type": 7
    },
    "5": {
      "Tags": [],
      "buildingType": 1,
      "finishType": 2,
      "id": 5,
      "initState": 0,
      "levelId": {
        "0": 1201,
        "1": 1202,
        "2": 1203,
        "3": 1204,
        "4": 1205,
        "5": 1206,
        "6": 1207,
        "7": 1208,
        "8": 1209,
        "9": 1210,
        "10": 1211
      },
      "maxLevel": 10,
      "type": 8
    },
    "6": {
      "Tags": [],
      "buildingType": 1,
      "finishType": 2,
      "id": 6,
      "initState": 1,
      "levelId": {
        "0": 901,
        "1": 902
      },
      "maxLevel": 1,
      "type": 9
    },
    "7": {
      "Tags": [],
      "buildingType": 1,
      "finishType": 2,
      "id": 7,
      "initState": 0,
      "levelId": {
        "0": 701,
        "1": 702
      },
      "maxLevel": 1,
      "type": 10
    },
    "8": {
      "Tags": [],
      "buildingType": 1,
      "finishType": 2,
      "id": 8,
      "initState": 1,
      "levelId": {
        "0": 1,
        "1": 2,
        "2": 3,
        "3": 4,
        "4": 5,
        "5": 6,
        "6": 7,
        "7": 8,
        "8": 9,
        "9": 10,
        "10": 11
      },
      "maxLevel": 10,
      "type": 11
    },
    "9": {
      "Tags": [],
      "buildingType": 1,
      "finishType": 2,
      "id": 9,
      "initState": 1,
      "levelId": {
        "0": 1,
        "1": 2,
        "2": 3,
        "3": 4,
        "4": 5,
        "5": 6,
        "6": 7,
        "7": 8,
        "8": 9,
        "9": 10,
        "10": 11
      },
      "maxLevel": 10,
      "type": 12
    },
    "10": {
      "Tags": [],
      "buildingType": 1,
      "finishType": 2,
      "id": 10,
      "initState": 1,
      "levelId": {
        "0": 1001,
        "1": 1002,
        "2": 1003,
        "3": 1004,
        "4": 1005,
        "5": 1006,
        "6": 1007,
        "7": 1008,
        "8": 1009,
        "9": 1010,
        "10": 1011
      },
      "maxLevel": 10,
      "type": 13
    },
    "11": {
      "Tags": [],
      "buildingType": 1,
      "finishType": 2,
      "id": 11,
      "initState": 0,
      "levelId": {
        "0": 1101,
        "1": 1102,
        "2": 1103,
        "3": 1104,
        "4": 1105,
        "5": 1106,
        "6": 1107,
        "7": 1108,
        "8": 1109,
        "9": 1110,
        "10": 1111
      },
      "maxLevel": 10,
      "type": 14
    },
    "12": {
      "Tags": [],
      "buildingType": 1,
      "finishType": 2,
      "id": 12,
      "initState": 1,
      "levelId": {
        "0": 1,
        "1": 2,
        "2": 3,
        "3": 4,
        "4": 5,
        "5": 6,
        "6": 7,
        "7": 8,
        "8": 9,
        "9": 10,
        "10": 11
      },
      "maxLevel": 1,
      "type": 15
    },
    "13": {
      "Tags": [],
      "buildingType": 1,
      "finishType": 2,
      "id": 13,
      "initState": 1,
      "levelId": {
        "0": 1,
        "1": 2,
        "2": 3,
        "3": 4,
        "4": 5,
        "5": 6,
        "6": 7,
        "7": 8,
        "8": 9,
        "9": 10,
        "10": 11
      },
      "maxLevel": 10,
      "type": 16
    },
    "14": {
      "Tags": [],
      "buildingType": 1,
      "finishType": 2,
      "id": 14,
      "initState": 1,
      "levelId": {
        "0": 1,
        "1": 2,
        "2": 3,
        "3": 4,
        "4": 5,
        "5": 6,
        "6": 7,
        "7": 8,
        "8": 9,
        "9": 10,
        "10": 11
      },
      "maxLevel": 10,
      "type": 17
    },
    "15": {
      "Tags": [],
      "buildingType": 1,
      "finishType": 2,
      "id": 15,
      "initState": 1,
      "levelId": {
        "0": 1501,
        "1": 1502
      },
      "maxLevel": 1,
      "type": 18
    },
    "16": {
      "Tags": [],
      "buildingType": 1,
      "finishType": 2,
      "id": 16,
      "initState": 1,
      "levelId": {
        "0": 1601,
        "1": 1602
      },
      "maxLevel": 1,
      "type": 19
    },
    "17": {
      "Tags": [],
      "buildingType": 1,
      "finishType": 2,
      "id": 17,
      "initState": 0,
      "levelId": {
        "0": 1701,
        "1": 1702,
        "2": 1703,
        "3": 1704,
        "4": 1705,
        "5": 1706,
        "6": 1707,
        "7": 1708,
        "8": 1709,
        "9": 1710,
        "10": 1711
      },
      "maxLevel": 10,
      "type": 20
    },
    "18": {
      "Tags": [],
      "buildingType": 1,
      "finishType": 2,
      "id": 18,
      "initState": 0,
      "levelId": {
        "0": 1801,
        "1": 1802,
        "2": 1803,
        "3": 1804,
        "4": 1805,
        "5": 1806,
        "6": 1807,
        "7": 1808,
        "8": 1809,
        "9": 1810,
        "10": 1811
      },
      "maxLevel": 10,
      "type": 21
    }
  }
}