{
  "MazeArtifactConfigs": {
    "1": {
      "Tags": [],
      "battle": 3000001,
      "condition": 0,
      "desc": 0,
      "id": 1,
      "name": 0,
      "pic": "",
      "quality": 0,
      "subPic": ""
    },
    "2": {
      "Tags": [],
      "battle": 3000002,
      "condition": 0,
      "desc": 0,
      "id": 2,
      "name": 0,
      "pic": "",
      "quality": 0,
      "subPic": ""
    },
    "3": {
      "Tags": [],
      "battle": 3000003,
      "condition": 102102,
      "desc": 0,
      "id": 3,
      "name": 0,
      "pic": "",
      "quality": 0,
      "subPic": ""
    }
  }
}