{
  "MazeRelicConfigs": {
    "1": {
      "Tags": [],
      "battle": 3010001,
      "condition": 0,
      "desc": 0,
      "id": 1,
      "name": 0,
      "pic": "",
      "quality": 0,
      "subPic": "",
      "up": 2000
    },
    "2": {
      "Tags": [],
      "battle": 3010002,
      "condition": 0,
      "desc": 0,
      "id": 2,
      "name": 0,
      "pic": "",
      "quality": 0,
      "subPic": "",
      "up": 4000
    },
    "3": {
      "Tags": [],
      "battle": 3010003,
      "condition": 102102,
      "desc": 0,
      "id": 3,
      "name": 0,
      "pic": "",
      "quality": 0,
      "subPic": "",
      "up": 6000
    },
    "4": {
      "Tags": [],
      "battle": 3010001,
      "condition": 0,
      "desc": 0,
      "id": 4,
      "name": 0,
      "pic": "",
      "quality": 0,
      "subPic": "",
      "up": 2000
    },
    "5": {
      "Tags": [],
      "battle": 3010002,
      "condition": 0,
      "desc": 0,
      "id": 5,
      "name": 0,
      "pic": "",
      "quality": 0,
      "subPic": "",
      "up": 4000
    },
    "6": {
      "Tags": [],
      "battle": 3010003,
      "condition": 102102,
      "desc": 0,
      "id": 6,
      "name": 0,
      "pic": "",
      "quality": 0,
      "subPic": "",
      "up": 6000
    },
    "7": {
      "Tags": [],
      "battle": 3010001,
      "condition": 0,
      "desc": 0,
      "id": 7,
      "name": 0,
      "pic": "",
      "quality": 0,
      "subPic": "",
      "up": 2000
    },
    "8": {
      "Tags": [],
      "battle": 3010002,
      "condition": 0,
      "desc": 0,
      "id": 8,
      "name": 0,
      "pic": "",
      "quality": 0,
      "subPic": "",
      "up": 4000
    },
    "9": {
      "Tags": [],
      "battle": 3010003,
      "condition": 102102,
      "desc": 0,
      "id": 9,
      "name": 0,
      "pic": "",
      "quality": 0,
      "subPic": "",
      "up": 6000
    },
    "10": {
      "Tags": [],
      "battle": 3010001,
      "condition": 0,
      "desc": 0,
      "id": 10,
      "name": 0,
      "pic": "",
      "quality": 0,
      "subPic": "",
      "up": 2000
    },
    "11": {
      "Tags": [],
      "battle": 3010002,
      "condition": 0,
      "desc": 0,
      "id": 11,
      "name": 0,
      "pic": "",
      "quality": 0,
      "subPic": "",
      "up": 4000
    },
    "12": {
      "Tags": [],
      "battle": 3010003,
      "condition": 102102,
      "desc": 0,
      "id": 12,
      "name": 0,
      "pic": "",
      "quality": 0,
      "subPic": "",
      "up": 6000
    },
    "13": {
      "Tags": [],
      "battle": 3010001,
      "condition": 0,
      "desc": 0,
      "id": 13,
      "name": 0,
      "pic": "",
      "quality": 0,
      "subPic": "",
      "up": 2000
    },
    "14": {
      "Tags": [],
      "battle": 3010002,
      "condition": 0,
      "desc": 0,
      "id": 14,
      "name": 0,
      "pic": "",
      "quality": 0,
      "subPic": "",
      "up": 4000
    },
    "15": {
      "Tags": [],
      "battle": 3010003,
      "condition": 102102,
      "desc": 0,
      "id": 15,
      "name": 0,
      "pic": "",
      "quality": 0,
      "subPic": "",
      "up": 6000
    }
  }
}