{
  "MazeLayerConfigs": {
    "1": {
      "Tags": [],
      "artifactGet": {
        "1": {
          "value": [
            2,
            1
          ]
        }
      },
      "functionId": 114,
      "id": 1,
      "layerId": 1,
      "levelId": [
        1,
        2,
        3,
        4,
        5,
        6,
        7,
        8,
        9,
        10,
        11,
        12,
        13,
        14,
        15
      ],
      "mazeRecruitGet": {
        "1": {
          "value": [
            1,
            6,
            2,
            7
          ]
        },
        "2": {
          "value": [
            1,
            7
          ]
        }
      },
      "recruitId": {
        "1": {
          "value": [
            22222,
            0
          ]
        },
        "2": {
          "value": [
            22222,
            0
          ]
        },
        "3": {
          "value": [
            22222,
            0
          ]
        }
      },
      "relicGet": {
        "1": {
          "value": [
            4,
            1
          ]
        },
        "3": {
          "value": [
            1,
            3
          ]
        }
      },
      "reward": "{\"0\": {\"type\": 0, \"id\": 1, \"count\": 27000, \"civil\": 0, \"level\": 0, \"star\": 0}, \"1\": {\"type\": 0, \"id\": 5, \"count\": 5400, \"civil\": 0, \"level\": 0, \"star\": 0}, \"2\": {\"type\": 0, \"id\": 6, \"count\": 25, \"civil\": 0, \"level\": 0, \"star\": 0}}",
      "type": 1
    },
    "2": {
      "Tags": [],
      "artifactGet": {
        "1": {
          "value": [
            1,
            3
          ]
        },
        "3": {
          "value": [
            1,
            3
          ]
        }
      },
      "functionId": 114,
      "id": 2,
      "layerId": 2,
      "levelId": [
        16,
        17,
        18,
        19,
        20,
        21,
        22,
        23,
        24,
        25,
        26,
        27,
        28,
        29,
        30
      ],
      "mazeRecruitGet": {},
      "recruitId": {
        "3": {
          "value": [
            22222,
            0
          ]
        },
        "4": {
          "value": [
            22222,
            0
          ]
        }
      },
      "relicGet": {
        "1": {
          "value": [
            1,
            3
          ]
        },
        "3": {
          "value": [
            1,
            3
          ]
        }
      },
      "reward": "{\"0\": {\"type\": 0, \"id\": 1, \"count\": 27000, \"civil\": 0, \"level\": 0, \"star\": 0}, \"1\": {\"type\": 0, \"id\": 5, \"count\": 5400, \"civil\": 0, \"level\": 0, \"star\": 0}, \"2\": {\"type\": 0, \"id\": 6, \"count\": 25, \"civil\": 0, \"level\": 0, \"star\": 0}}",
      "type": 1
    },
    "3": {
      "Tags": [],
      "artifactGet": {
        "1": {
          "value": [
            1,
            3
          ]
        },
        "3": {
          "value": [
            1,
            3
          ]
        }
      },
      "functionId": 114,
      "id": 3,
      "layerId": 3,
      "levelId": [
        31,
        32,
        33,
        34,
        35,
        36,
        37,
        38,
        39,
        40,
        41,
        42,
        43,
        44,
        45
      ],
      "mazeRecruitGet": {},
      "recruitId": {
        "3": {
          "value": [
            22222,
            0
          ]
        },
        "4": {
          "value": [
            22222,
            0
          ]
        },
        "5": {
          "value": [
            22222,
            0
          ]
        }
      },
      "relicGet": {
        "1": {
          "value": [
            1,
            3
          ]
        },
        "3": {
          "value": [
            1,
            3
          ]
        }
      },
      "reward": "{\"0\": {\"type\": 0, \"id\": 1, \"count\": 27000, \"civil\": 0, \"level\": 0, \"star\": 0}, \"1\": {\"type\": 0, \"id\": 5, \"count\": 5400, \"civil\": 0, \"level\": 0, \"star\": 0}, \"2\": {\"type\": 0, \"id\": 6, \"count\": 25, \"civil\": 0, \"level\": 0, \"star\": 0}}",
      "type": 1
    },
    "4": {
      "Tags": [],
      "artifactGet": {},
      "functionId": 115,
      "id": 4,
      "layerId": 3,
      "levelId": [
        46,
        47,
        48,
        49,
        50,
        51,
        52,
        53,
        54,
        55,
        56,
        57,
        58,
        59,
        60
      ],
      "mazeRecruitGet": {},
      "recruitId": {
        "3": {
          "value": [
            22222,
            0
          ]
        },
        "4": {
          "value": [
            22222,
            0
          ]
        },
        "5": {
          "value": [
            22222,
            0
          ]
        }
      },
      "relicGet": {},
      "reward": "{\"0\": {\"type\": 0, \"id\": 1, \"count\": 27000, \"civil\": 0, \"level\": 0, \"star\": 0}, \"1\": {\"type\": 0, \"id\": 5, \"count\": 5400, \"civil\": 0, \"level\": 0, \"star\": 0}, \"2\": {\"type\": 0, \"id\": 6, \"count\": 25, \"civil\": 0, \"level\": 0, \"star\": 0}}",
      "type": 2
    }
  }
}