{
  "TavernLevelConfigs": {
    "1": {
      "Tags": [],
      "condition": [],
      "id": 1,
      "questStar": [
        1,
        2,
        3
      ],
      "soloQuest": 4,
      "teamQuest": 1
    },
    "2": {
      "Tags": [],
      "condition": [],
      "id": 2,
      "questStar": [
        1,
        2,
        3,
        4
      ],
      "soloQuest": 5,
      "teamQuest": 1
    },
    "3": {
      "Tags": [],
      "condition": [],
      "id": 3,
      "questStar": [
        2,
        3,
        4
      ],
      "soloQuest": 6,
      "teamQuest": 1
    },
    "4": {
      "Tags": [],
      "condition": [],
      "id": 4,
      "questStar": [
        2,
        3,
        4,
        5
      ],
      "soloQuest": 7,
      "teamQuest": 1
    },
    "5": {
      "Tags": [],
      "condition": [],
      "id": 5,
      "questStar": [
        3,
        4,
        5
      ],
      "soloQuest": 8,
      "teamQuest": 1
    },
    "6": {
      "Tags": [],
      "condition": [],
      "id": 6,
      "questStar": [
        3,
        4,
        5,
        6
      ],
      "soloQuest": 9,
      "teamQuest": 1
    },
    "7": {
      "Tags": [],
      "condition": [],
      "id": 7,
      "questStar": [
        4,
        5,
        6
      ],
      "soloQuest": 10,
      "teamQuest": 1
    },
    "8": {
      "Tags": [],
      "condition": [],
      "id": 8,
      "questStar": [
        4,
        5,
        6,
        7
      ],
      "soloQuest": 11,
      "teamQuest": 1
    }
  }
}