{
  "TechnologyLevelConfigs": {
    "1001": {
      "Tags": [],
      "condition": [
        502101
      ],
      "cost": "{\"0\": {\"type\": 0, \"id\": 7, \"count\": 100, \"param\": 0}}",
      "directlyCompleteCost": "{\"0\": {\"type\": 0, \"id\": 2, \"count\": 50, \"param\": 0}}",
      "dropReplace": "",
      "id": 1001,
      "propertiesLocation": 0,
      "propertyId": 0,
      "propertyValue": 0,
      "prosperity": 0,
      "randomResourceUp": 0,
      "randomResourceWeightsUp": 0,
      "resourceUp": 0,
      "reward": "",
      "time": 10
    },
    "1002": {
      "Tags": [],
      "condition": [
        502101
      ],
      "cost": "{\"0\": {\"type\": 0, \"id\": 7, \"count\": 200, \"param\": 0}}",
      "directlyCompleteCost": "{\"0\": {\"type\": 0, \"id\": 2, \"count\": 50, \"param\": 0}}",
      "dropReplace": "",
      "id": 1002,
      "propertiesLocation": 0,
      "propertyId": 0,
      "propertyValue": 0,
      "prosperity": 100,
      "randomResourceUp": 0,
      "randomResourceWeightsUp": 0,
      "resourceUp": 2,
      "reward": "",
      "time": 30
    },
    "1003": {
      "Tags": [],
      "condition": [
        502101
      ],
      "cost": "{\"0\": {\"type\": 0, \"id\": 7, \"count\": 300, \"param\": 0}}",
      "directlyCompleteCost": "{\"0\": {\"type\": 0, \"id\": 2, \"count\": 50, \"param\": 0}}",
      "dropReplace": "",
      "id": 1003,
      "propertiesLocation": 0,
      "propertyId": 0,
      "propertyValue": 0,
      "prosperity": 100,
      "randomResourceUp": 0,
      "randomResourceWeightsUp": 0,
      "resourceUp": 4,
      "reward": "",
      "time": 60
    },
    "1004": {
      "Tags": [],
      "condition": [
        502101
      ],
      "cost": "{\"0\": {\"type\": 0, \"id\": 7, \"count\": 400, \"param\": 0}}",
      "directlyCompleteCost": "{\"0\": {\"type\": 0, \"id\": 2, \"count\": 50, \"param\": 0}}",
      "dropReplace": "",
      "id": 1004,
      "propertiesLocation": 0,
      "propertyId": 0,
      "propertyValue": 0,
      "prosperity": 100,
      "randomResourceUp": 0,
      "randomResourceWeightsUp": 0,
      "resourceUp": 6,
      "reward": "",
      "time": 300
    },
    "1005": {
      "Tags": [],
      "condition": [
        502101
      ],
      "cost": "{\"0\": {\"type\": 0, \"id\": 7, \"count\": 500, \"param\": 0}}",
      "directlyCompleteCost": "{\"0\": {\"type\": 0, \"id\": 2, \"count\": 50, \"param\": 0}}",
      "dropReplace": "",
      "id": 1005,
      "propertiesLocation": 0,
      "propertyId": 0,
      "propertyValue": 0,
      "prosperity": 100,
      "randomResourceUp": 0,
      "randomResourceWeightsUp": 0,
      "resourceUp": 8,
      "reward": "",
      "time": 600
    },
    "1006": {
      "Tags": [],
      "condition": [],
      "cost": "{\"0\": {\"type\": 0, \"id\": 7, \"count\": 99999999, \"param\": 0}}",
      "directlyCompleteCost": "",
      "dropReplace": "",
      "id": 1006,
      "propertiesLocation": 0,
      "propertyId": 0,
      "propertyValue": 0,
      "prosperity": 100,
      "randomResourceUp": 0,
      "randomResourceWeightsUp": 0,
      "resourceUp": 10,
      "reward": "",
      "time": 0
    },
    "1101": {
      "Tags": [],
      "condition": [
        502101
      ],
      "cost": "{\"0\": {\"type\": 0, \"id\": 7, \"count\": 100, \"param\": 0}}",
      "directlyCompleteCost": "{\"0\": {\"type\": 0, \"id\": 2, \"count\": 50, \"param\": 0}}",
      "dropReplace": "",
      "id": 1101,
      "propertiesLocation": 0,
      "propertyId": 0,
      "propertyValue": 0,
      "prosperity": 0,
      "randomResourceUp": 0,
      "randomResourceWeightsUp": 0,
      "resourceUp": 0,
      "reward": "",
      "time": 10
    },
    "1102": {
      "Tags": [],
      "condition": [
        502101
      ],
      "cost": "{\"0\": {\"type\": 0, \"id\": 7, \"count\": 200, \"param\": 0}}",
      "directlyCompleteCost": "{\"0\": {\"type\": 0, \"id\": 2, \"count\": 50, \"param\": 0}}",
      "dropReplace": "",
      "id": 1102,
      "propertiesLocation": 0,
      "propertyId": 0,
      "propertyValue": 0,
      "prosperity": 100,
      "randomResourceUp": 0,
      "randomResourceWeightsUp": 0,
      "resourceUp": 1,
      "reward": "",
      "time": 30
    },
    "1103": {
      "Tags": [],
      "condition": [
        502101
      ],
      "cost": "{\"0\": {\"type\": 0, \"id\": 7, \"count\": 300, \"param\": 0}}",
      "directlyCompleteCost": "{\"0\": {\"type\": 0, \"id\": 2, \"count\": 50, \"param\": 0}}",
      "dropReplace": "",
      "id": 1103,
      "propertiesLocation": 0,
      "propertyId": 0,
      "propertyValue": 0,
      "prosperity": 100,
      "randomResourceUp": 0,
      "randomResourceWeightsUp": 0,
      "resourceUp": 2,
      "reward": "",
      "time": 60
    },
    "1104": {
      "Tags": [],
      "condition": [
        502101
      ],
      "cost": "{\"0\": {\"type\": 0, \"id\": 7, \"count\": 400, \"param\": 0}}",
      "directlyCompleteCost": "{\"0\": {\"type\": 0, \"id\": 2, \"count\": 50, \"param\": 0}}",
      "dropReplace": "",
      "id": 1104,
      "propertiesLocation": 0,
      "propertyId": 0,
      "propertyValue": 0,
      "prosperity": 100,
      "randomResourceUp": 0,
      "randomResourceWeightsUp": 0,
      "resourceUp": 3,
      "reward": "",
      "time": 300
    },
    "1105": {
      "Tags": [],
      "condition": [
        502101
      ],
      "cost": "{\"0\": {\"type\": 0, \"id\": 7, \"count\": 500, \"param\": 0}}",
      "directlyCompleteCost": "{\"0\": {\"type\": 0, \"id\": 2, \"count\": 50, \"param\": 0}}",
      "dropReplace": "",
      "id": 1105,
      "propertiesLocation": 0,
      "propertyId": 0,
      "propertyValue": 0,
      "prosperity": 100,
      "randomResourceUp": 0,
      "randomResourceWeightsUp": 0,
      "resourceUp": 4,
      "reward": "",
      "time": 600
    },
    "1106": {
      "Tags": [],
      "condition": [],
      "cost": "{\"0\": {\"type\": 0, \"id\": 7, \"count\": 99999999, \"param\": 0}}",
      "directlyCompleteCost": "",
      "dropReplace": "",
      "id": 1106,
      "propertiesLocation": 0,
      "propertyId": 0,
      "propertyValue": 0,
      "prosperity": 100,
      "randomResourceUp": 0,
      "randomResourceWeightsUp": 0,
      "resourceUp": 5,
      "reward": "",
      "time": 0
    },
    "1201": {
      "Tags": [],
      "condition": [
        502102
      ],
      "cost": "{\"0\": {\"type\": 0, \"id\": 7, \"count\": 100, \"param\": 0}}",
      "directlyCompleteCost": "{\"0\": {\"type\": 0, \"id\": 2, \"count\": 50, \"param\": 0}}",
      "dropReplace": "",
      "id": 1201,
      "propertiesLocation": 0,
      "propertyId": 0,
      "propertyValue": 0,
      "prosperity": 0,
      "randomResourceUp": 0,
      "randomResourceWeightsUp": 0,
      "resourceUp": 0,
      "reward": "",
      "time": 10
    },
    "1202": {
      "Tags": [],
      "condition": [
        502102
      ],
      "cost": "{\"0\": {\"type\": 0, \"id\": 7, \"count\": 200, \"param\": 0}}",
      "directlyCompleteCost": "{\"0\": {\"type\": 0, \"id\": 2, \"count\": 50, \"param\": 0}}",
      "dropReplace": "",
      "id": 1202,
      "propertiesLocation": 0,
      "propertyId": 0,
      "propertyValue": 0,
      "prosperity": 100,
      "randomResourceUp": 0,
      "randomResourceWeightsUp": 0,
      "resourceUp": 1,
      "reward": "",
      "time": 30
    },
    "1203": {
      "Tags": [],
      "condition": [
        502102
      ],
      "cost": "{\"0\": {\"type\": 0, \"id\": 7, \"count\": 300, \"param\": 0}}",
      "directlyCompleteCost": "{\"0\": {\"type\": 0, \"id\": 2, \"count\": 50, \"param\": 0}}",
      "dropReplace": "",
      "id": 1203,
      "propertiesLocation": 0,
      "propertyId": 0,
      "propertyValue": 0,
      "prosperity": 100,
      "randomResourceUp": 0,
      "randomResourceWeightsUp": 0,
      "resourceUp": 2,
      "reward": "",
      "time": 60
    },
    "1204": {
      "Tags": [],
      "condition": [
        502102
      ],
      "cost": "{\"0\": {\"type\": 0, \"id\": 7, \"count\": 400, \"param\": 0}}",
      "directlyCompleteCost": "{\"0\": {\"type\": 0, \"id\": 2, \"count\": 50, \"param\": 0}}",
      "dropReplace": "",
      "id": 1204,
      "propertiesLocation": 0,
      "propertyId": 0,
      "propertyValue": 0,
      "prosperity": 100,
      "randomResourceUp": 0,
      "randomResourceWeightsUp": 0,
      "resourceUp": 3,
      "reward": "",
      "time": 300
    },
    "1205": {
      "Tags": [],
      "condition": [
        502102
      ],
      "cost": "{\"0\": {\"type\": 0, \"id\": 7, \"count\": 500, \"param\": 0}}",
      "directlyCompleteCost": "{\"0\": {\"type\": 0, \"id\": 2, \"count\": 50, \"param\": 0}}",
      "dropReplace": "",
      "id": 1205,
      "propertiesLocation": 0,
      "propertyId": 0,
      "propertyValue": 0,
      "prosperity": 100,
      "randomResourceUp": 0,
      "randomResourceWeightsUp": 0,
      "resourceUp": 4,
      "reward": "",
      "time": 600
    },
    "1206": {
      "Tags": [],
      "condition": [],
      "cost": "{\"0\": {\"type\": 0, \"id\": 7, \"count\": 99999999, \"param\": 0}}",
      "directlyCompleteCost": "",
      "dropReplace": "",
      "id": 1206,
      "propertiesLocation": 0,
      "propertyId": 0,
      "propertyValue": 0,
      "prosperity": 100,
      "randomResourceUp": 0,
      "randomResourceWeightsUp": 0,
      "resourceUp": 5,
      "reward": "",
      "time": 0
    },
    "1301": {
      "Tags": [],
      "condition": [
        502102
      ],
      "cost": "{\"0\": {\"type\": 0, \"id\": 7, \"count\": 100, \"param\": 0}}",
      "directlyCompleteCost": "{\"0\": {\"type\": 0, \"id\": 2, \"count\": 50, \"param\": 0}}",
      "dropReplace": "",
      "id": 1301,
      "propertiesLocation": 0,
      "propertyId": 0,
      "propertyValue": 0,
      "prosperity": 0,
      "randomResourceUp": 0,
      "randomResourceWeightsUp": 0,
      "resourceUp": 0,
      "reward": "",
      "time": 10
    },
    "1302": {
      "Tags": [],
      "condition": [
        502102
      ],
      "cost": "{\"0\": {\"type\": 0, \"id\": 7, \"count\": 200, \"param\": 0}}",
      "directlyCompleteCost": "{\"0\": {\"type\": 0, \"id\": 2, \"count\": 50, \"param\": 0}}",
      "dropReplace": "{\"0\": {\"type\": 4, \"id\": 1001, \"count\": 1, \"param\": 0}}",
      "id": 1302,
      "propertiesLocation": 0,
      "propertyId": 0,
      "propertyValue": 0,
      "prosperity": 100,
      "randomResourceUp": 0,
      "randomResourceWeightsUp": 0,
      "resourceUp": 0,
      "reward": "",
      "time": 30
    },
    "1303": {
      "Tags": [],
      "condition": [
        502102
      ],
      "cost": "{\"0\": {\"type\": 0, \"id\": 7, \"count\": 300, \"param\": 0}}",
      "directlyCompleteCost": "{\"0\": {\"type\": 0, \"id\": 2, \"count\": 50, \"param\": 0}}",
      "dropReplace": "{\"0\": {\"type\": 4, \"id\": 1002, \"count\": 1, \"param\": 0}}",
      "id": 1303,
      "propertiesLocation": 0,
      "propertyId": 0,
      "propertyValue": 0,
      "prosperity": 100,
      "randomResourceUp": 0,
      "randomResourceWeightsUp": 0,
      "resourceUp": 0,
      "reward": "",
      "time": 60
    },
    "1304": {
      "Tags": [],
      "condition": [
        502102
      ],
      "cost": "{\"0\": {\"type\": 0, \"id\": 7, \"count\": 400, \"param\": 0}}",
      "directlyCompleteCost": "{\"0\": {\"type\": 0, \"id\": 2, \"count\": 50, \"param\": 0}}",
      "dropReplace": "{\"0\": {\"type\": 4, \"id\": 1003, \"count\": 1, \"param\": 0}}",
      "id": 1304,
      "propertiesLocation": 0,
      "propertyId": 0,
      "propertyValue": 0,
      "prosperity": 100,
      "randomResourceUp": 0,
      "randomResourceWeightsUp": 0,
      "resourceUp": 0,
      "reward": "",
      "time": 300
    },
    "1305": {
      "Tags": [],
      "condition": [
        502102
      ],
      "cost": "{\"0\": {\"type\": 0, \"id\": 7, \"count\": 500, \"param\": 0}}",
      "directlyCompleteCost": "{\"0\": {\"type\": 0, \"id\": 2, \"count\": 50, \"param\": 0}}",
      "dropReplace": "{\"0\": {\"type\": 4, \"id\": 1004, \"count\": 1, \"param\": 0}}",
      "id": 1305,
      "propertiesLocation": 0,
      "propertyId": 0,
      "propertyValue": 0,
      "prosperity": 100,
      "randomResourceUp": 0,
      "randomResourceWeightsUp": 0,
      "resourceUp": 0,
      "reward": "",
      "time": 600
    },
    "1306": {
      "Tags": [],
      "condition": [],
      "cost": "{\"0\": {\"type\": 0, \"id\": 7, \"count\": 99999999, \"param\": 0}}",
      "directlyCompleteCost": "",
      "dropReplace": "{\"0\": {\"type\": 4, \"id\": 1005, \"count\": 1, \"param\": 0}}",
      "id": 1306,
      "propertiesLocation": 0,
      "propertyId": 0,
      "propertyValue": 0,
      "prosperity": 100,
      "randomResourceUp": 0,
      "randomResourceWeightsUp": 0,
      "resourceUp": 0,
      "reward": "",
      "time": 0
    },
    "1401": {
      "Tags": [],
      "condition": [
        502105
      ],
      "cost": "{\"0\": {\"type\": 0, \"id\": 7, \"count\": 100, \"param\": 0}}",
      "directlyCompleteCost": "{\"0\": {\"type\": 0, \"id\": 2, \"count\": 50, \"param\": 0}}",
      "dropReplace": "",
      "id": 1401,
      "propertiesLocation": 0,
      "propertyId": 0,
      "propertyValue": 0,
      "prosperity": 0,
      "randomResourceUp": 0,
      "randomResourceWeightsUp": 0,
      "resourceUp": 0,
      "reward": "",
      "time": 10
    },
    "1402": {
      "Tags": [],
      "condition": [
        502105
      ],
      "cost": "{\"0\": {\"type\": 0, \"id\": 7, \"count\": 200, \"param\": 0}}",
      "directlyCompleteCost": "{\"0\": {\"type\": 0, \"id\": 2, \"count\": 50, \"param\": 0}}",
      "dropReplace": "",
      "id": 1402,
      "propertiesLocation": 0,
      "propertyId": 0,
      "propertyValue": 0,
      "prosperity": 100,
      "randomResourceUp": 1,
      "randomResourceWeightsUp": 0,
      "resourceUp": 0,
      "reward": "",
      "time": 30
    },
    "1403": {
      "Tags": [],
      "condition": [
        502105
      ],
      "cost": "{\"0\": {\"type\": 0, \"id\": 7, \"count\": 300, \"param\": 0}}",
      "directlyCompleteCost": "{\"0\": {\"type\": 0, \"id\": 2, \"count\": 50, \"param\": 0}}",
      "dropReplace": "",
      "id": 1403,
      "propertiesLocation": 0,
      "propertyId": 0,
      "propertyValue": 0,
      "prosperity": 100,
      "randomResourceUp": 2,
      "randomResourceWeightsUp": 0,
      "resourceUp": 0,
      "reward": "",
      "time": 60
    },
    "1404": {
      "Tags": [],
      "condition": [
        502105
      ],
      "cost": "{\"0\": {\"type\": 0, \"id\": 7, \"count\": 400, \"param\": 0}}",
      "directlyCompleteCost": "{\"0\": {\"type\": 0, \"id\": 2, \"count\": 50, \"param\": 0}}",
      "dropReplace": "",
      "id": 1404,
      "propertiesLocation": 0,
      "propertyId": 0,
      "propertyValue": 0,
      "prosperity": 100,
      "randomResourceUp": 3,
      "randomResourceWeightsUp": 0,
      "resourceUp": 0,
      "reward": "",
      "time": 300
    },
    "1405": {
      "Tags": [],
      "condition": [
        502105
      ],
      "cost": "{\"0\": {\"type\": 0, \"id\": 7, \"count\": 500, \"param\": 0}}",
      "directlyCompleteCost": "{\"0\": {\"type\": 0, \"id\": 2, \"count\": 50, \"param\": 0}}",
      "dropReplace": "",
      "id": 1405,
      "propertiesLocation": 0,
      "propertyId": 0,
      "propertyValue": 0,
      "prosperity": 100,
      "randomResourceUp": 4,
      "randomResourceWeightsUp": 0,
      "resourceUp": 0,
      "reward": "",
      "time": 600
    },
    "1406": {
      "Tags": [],
      "condition": [],
      "cost": "{\"0\": {\"type\": 0, \"id\": 7, \"count\": 99999999, \"param\": 0}}",
      "directlyCompleteCost": "",
      "dropReplace": "",
      "id": 1406,
      "propertiesLocation": 0,
      "propertyId": 0,
      "propertyValue": 0,
      "prosperity": 100,
      "randomResourceUp": 5,
      "randomResourceWeightsUp": 0,
      "resourceUp": 0,
      "reward": "",
      "time": 0
    },
    "1501": {
      "Tags": [],
      "condition": [
        502104
      ],
      "cost": "{\"0\": {\"type\": 0, \"id\": 7, \"count\": 100, \"param\": 0}}",
      "directlyCompleteCost": "{\"0\": {\"type\": 0, \"id\": 2, \"count\": 50, \"param\": 0}}",
      "dropReplace": "",
      "id": 1501,
      "propertiesLocation": 0,
      "propertyId": 0,
      "propertyValue": 0,
      "prosperity": 0,
      "randomResourceUp": 0,
      "randomResourceWeightsUp": 0,
      "resourceUp": 0,
      "reward": "",
      "time": 10
    },
    "1502": {
      "Tags": [],
      "condition": [
        502104
      ],
      "cost": "{\"0\": {\"type\": 0, \"id\": 7, \"count\": 200, \"param\": 0}}",
      "directlyCompleteCost": "{\"0\": {\"type\": 0, \"id\": 2, \"count\": 50, \"param\": 0}}",
      "dropReplace": "",
      "id": 1502,
      "propertiesLocation": 0,
      "propertyId": 0,
      "propertyValue": 0,
      "prosperity": 100,
      "randomResourceUp": 1,
      "randomResourceWeightsUp": 0,
      "resourceUp": 0,
      "reward": "",
      "time": 30
    },
    "1503": {
      "Tags": [],
      "condition": [
        502104
      ],
      "cost": "{\"0\": {\"type\": 0, \"id\": 7, \"count\": 300, \"param\": 0}}",
      "directlyCompleteCost": "{\"0\": {\"type\": 0, \"id\": 2, \"count\": 50, \"param\": 0}}",
      "dropReplace": "",
      "id": 1503,
      "propertiesLocation": 0,
      "propertyId": 0,
      "propertyValue": 0,
      "prosperity": 100,
      "randomResourceUp": 2,
      "randomResourceWeightsUp": 0,
      "resourceUp": 0,
      "reward": "",
      "time": 60
    },
    "1504": {
      "Tags": [],
      "condition": [
        502104
      ],
      "cost": "{\"0\": {\"type\": 0, \"id\": 7, \"count\": 400, \"param\": 0}}",
      "directlyCompleteCost": "{\"0\": {\"type\": 0, \"id\": 2, \"count\": 50, \"param\": 0}}",
      "dropReplace": "",
      "id": 1504,
      "propertiesLocation": 0,
      "propertyId": 0,
      "propertyValue": 0,
      "prosperity": 100,
      "randomResourceUp": 3,
      "randomResourceWeightsUp": 0,
      "resourceUp": 0,
      "reward": "",
      "time": 300
    },
    "1505": {
      "Tags": [],
      "condition": [
        502104
      ],
      "cost": "{\"0\": {\"type\": 0, \"id\": 7, \"count\": 500, \"param\": 0}}",
      "directlyCompleteCost": "{\"0\": {\"type\": 0, \"id\": 2, \"count\": 50, \"param\": 0}}",
      "dropReplace": "",
      "id": 1505,
      "propertiesLocation": 0,
      "propertyId": 0,
      "propertyValue": 0,
      "prosperity": 100,
      "randomResourceUp": 4,
      "randomResourceWeightsUp": 0,
      "resourceUp": 0,
      "reward": "",
      "time": 600
    },
    "1506": {
      "Tags": [],
      "condition": [],
      "cost": "{\"0\": {\"type\": 0, \"id\": 7, \"count\": 99999999, \"param\": 0}}",
      "directlyCompleteCost": "",
      "dropReplace": "",
      "id": 1506,
      "propertiesLocation": 0,
      "propertyId": 0,
      "propertyValue": 0,
      "prosperity": 100,
      "randomResourceUp": 5,
      "randomResourceWeightsUp": 0,
      "resourceUp": 0,
      "reward": "",
      "time": 0
    },
    "1601": {
      "Tags": [],
      "condition": [
        502104
      ],
      "cost": "{\"0\": {\"type\": 0, \"id\": 7, \"count\": 100, \"param\": 0}}",
      "directlyCompleteCost": "{\"0\": {\"type\": 0, \"id\": 2, \"count\": 50, \"param\": 0}}",
      "dropReplace": "",
      "id": 1601,
      "propertiesLocation": 0,
      "propertyId": 0,
      "propertyValue": 0,
      "prosperity": 0,
      "randomResourceUp": 0,
      "randomResourceWeightsUp": 0,
      "resourceUp": 0,
      "reward": "",
      "time": 10
    },
    "1602": {
      "Tags": [],
      "condition": [
        502104
      ],
      "cost": "{\"0\": {\"type\": 0, \"id\": 7, \"count\": 200, \"param\": 0}}",
      "directlyCompleteCost": "{\"0\": {\"type\": 0, \"id\": 2, \"count\": 50, \"param\": 0}}",
      "dropReplace": "",
      "id": 1602,
      "propertiesLocation": 0,
      "propertyId": 0,
      "propertyValue": 0,
      "prosperity": 100,
      "randomResourceUp": 1,
      "randomResourceWeightsUp": 0,
      "resourceUp": 0,
      "reward": "",
      "time": 30
    },
    "1603": {
      "Tags": [],
      "condition": [
        502104
      ],
      "cost": "{\"0\": {\"type\": 0, \"id\": 7, \"count\": 300, \"param\": 0}}",
      "directlyCompleteCost": "{\"0\": {\"type\": 0, \"id\": 2, \"count\": 50, \"param\": 0}}",
      "dropReplace": "",
      "id": 1603,
      "propertiesLocation": 0,
      "propertyId": 0,
      "propertyValue": 0,
      "prosperity": 100,
      "randomResourceUp": 2,
      "randomResourceWeightsUp": 0,
      "resourceUp": 0,
      "reward": "",
      "time": 60
    },
    "1604": {
      "Tags": [],
      "condition": [
        502104
      ],
      "cost": "{\"0\": {\"type\": 0, \"id\": 7, \"count\": 400, \"param\": 0}}",
      "directlyCompleteCost": "{\"0\": {\"type\": 0, \"id\": 2, \"count\": 50, \"param\": 0}}",
      "dropReplace": "",
      "id": 1604,
      "propertiesLocation": 0,
      "propertyId": 0,
      "propertyValue": 0,
      "prosperity": 100,
      "randomResourceUp": 3,
      "randomResourceWeightsUp": 0,
      "resourceUp": 0,
      "reward": "",
      "time": 300
    },
    "1605": {
      "Tags": [],
      "condition": [
        502104
      ],
      "cost": "{\"0\": {\"type\": 0, \"id\": 7, \"count\": 500, \"param\": 0}}",
      "directlyCompleteCost": "{\"0\": {\"type\": 0, \"id\": 2, \"count\": 50, \"param\": 0}}",
      "dropReplace": "",
      "id": 1605,
      "propertiesLocation": 0,
      "propertyId": 0,
      "propertyValue": 0,
      "prosperity": 100,
      "randomResourceUp": 4,
      "randomResourceWeightsUp": 0,
      "resourceUp": 0,
      "reward": "",
      "time": 600
    },
    "1606": {
      "Tags": [],
      "condition": [],
      "cost": "{\"0\": {\"type\": 0, \"id\": 7, \"count\": 99999999, \"param\": 0}}",
      "directlyCompleteCost": "",
      "dropReplace": "",
      "id": 1606,
      "propertiesLocation": 0,
      "propertyId": 0,
      "propertyValue": 0,
      "prosperity": 100,
      "randomResourceUp": 5,
      "randomResourceWeightsUp": 0,
      "resourceUp": 0,
      "reward": "",
      "time": 0
    },
    "1701": {
      "Tags": [],
      "condition": [
        502105
      ],
      "cost": "{\"0\": {\"type\": 0, \"id\": 7, \"count\": 100, \"param\": 0}}",
      "directlyCompleteCost": "{\"0\": {\"type\": 0, \"id\": 2, \"count\": 50, \"param\": 0}}",
      "dropReplace": "",
      "id": 1701,
      "propertiesLocation": 0,
      "propertyId": 0,
      "propertyValue": 0,
      "prosperity": 0,
      "randomResourceUp": 0,
      "randomResourceWeightsUp": 0,
      "resourceUp": 0,
      "reward": "",
      "time": 10
    },
    "1702": {
      "Tags": [],
      "condition": [
        502105
      ],
      "cost": "{\"0\": {\"type\": 0, \"id\": 7, \"count\": 200, \"param\": 0}}",
      "directlyCompleteCost": "{\"0\": {\"type\": 0, \"id\": 2, \"count\": 50, \"param\": 0}}",
      "dropReplace": "{\"0\": {\"type\": 4, \"id\": 1006, \"count\": 1, \"param\": 0}}",
      "id": 1702,
      "propertiesLocation": 0,
      "propertyId": 0,
      "propertyValue": 0,
      "prosperity": 100,
      "randomResourceUp": 0,
      "randomResourceWeightsUp": 0,
      "resourceUp": 0,
      "reward": "",
      "time": 30
    },
    "1703": {
      "Tags": [],
      "condition": [
        502105
      ],
      "cost": "{\"0\": {\"type\": 0, \"id\": 7, \"count\": 300, \"param\": 0}}",
      "directlyCompleteCost": "{\"0\": {\"type\": 0, \"id\": 2, \"count\": 50, \"param\": 0}}",
      "dropReplace": "{\"0\": {\"type\": 4, \"id\": 1007, \"count\": 1, \"param\": 0}}",
      "id": 1703,
      "propertiesLocation": 0,
      "propertyId": 0,
      "propertyValue": 0,
      "prosperity": 100,
      "randomResourceUp": 0,
      "randomResourceWeightsUp": 0,
      "resourceUp": 0,
      "reward": "",
      "time": 60
    },
    "1704": {
      "Tags": [],
      "condition": [
        502105
      ],
      "cost": "{\"0\": {\"type\": 0, \"id\": 7, \"count\": 400, \"param\": 0}}",
      "directlyCompleteCost": "{\"0\": {\"type\": 0, \"id\": 2, \"count\": 50, \"param\": 0}}",
      "dropReplace": "{\"0\": {\"type\": 4, \"id\": 1008, \"count\": 1, \"param\": 0}}",
      "id": 1704,
      "propertiesLocation": 0,
      "propertyId": 0,
      "propertyValue": 0,
      "prosperity": 100,
      "randomResourceUp": 0,
      "randomResourceWeightsUp": 0,
      "resourceUp": 0,
      "reward": "",
      "time": 300
    },
    "1705": {
      "Tags": [],
      "condition": [
        502105
      ],
      "cost": "{\"0\": {\"type\": 0, \"id\": 7, \"count\": 500, \"param\": 0}}",
      "directlyCompleteCost": "{\"0\": {\"type\": 0, \"id\": 2, \"count\": 50, \"param\": 0}}",
      "dropReplace": "{\"0\": {\"type\": 4, \"id\": 1009, \"count\": 1, \"param\": 0}}",
      "id": 1705,
      "propertiesLocation": 0,
      "propertyId": 0,
      "propertyValue": 0,
      "prosperity": 100,
      "randomResourceUp": 0,
      "randomResourceWeightsUp": 0,
      "resourceUp": 0,
      "reward": "",
      "time": 600
    },
    "1706": {
      "Tags": [],
      "condition": [],
      "cost": "{\"0\": {\"type\": 0, \"id\": 7, \"count\": 99999999, \"param\": 0}}",
      "directlyCompleteCost": "",
      "dropReplace": "{\"0\": {\"type\": 4, \"id\": 1010, \"count\": 1, \"param\": 0}}",
      "id": 1706,
      "propertiesLocation": 0,
      "propertyId": 0,
      "propertyValue": 0,
      "prosperity": 100,
      "randomResourceUp": 0,
      "randomResourceWeightsUp": 0,
      "resourceUp": 0,
      "reward": "",
      "time": 0
    },
    "1801": {
      "Tags": [],
      "condition": [
        502106
      ],
      "cost": "{\"0\": {\"type\": 0, \"id\": 7, \"count\": 100, \"param\": 0}}",
      "directlyCompleteCost": "{\"0\": {\"type\": 0, \"id\": 2, \"count\": 50, \"param\": 0}}",
      "dropReplace": "",
      "id": 1801,
      "propertiesLocation": 0,
      "propertyId": 0,
      "propertyValue": 0,
      "prosperity": 0,
      "randomResourceUp": 0,
      "randomResourceWeightsUp": 0,
      "resourceUp": 0,
      "reward": "",
      "time": 10
    },
    "1802": {
      "Tags": [],
      "condition": [
        502106
      ],
      "cost": "{\"0\": {\"type\": 0, \"id\": 7, \"count\": 200, \"param\": 0}}",
      "directlyCompleteCost": "{\"0\": {\"type\": 0, \"id\": 2, \"count\": 50, \"param\": 0}}",
      "dropReplace": "",
      "id": 1802,
      "propertiesLocation": 0,
      "propertyId": 0,
      "propertyValue": 0,
      "prosperity": 100,
      "randomResourceUp": 0,
      "randomResourceWeightsUp": 0,
      "resourceUp": 12,
      "reward": "",
      "time": 30
    },
    "1803": {
      "Tags": [],
      "condition": [
        502106
      ],
      "cost": "{\"0\": {\"type\": 0, \"id\": 7, \"count\": 300, \"param\": 0}}",
      "directlyCompleteCost": "{\"0\": {\"type\": 0, \"id\": 2, \"count\": 50, \"param\": 0}}",
      "dropReplace": "",
      "id": 1803,
      "propertiesLocation": 0,
      "propertyId": 0,
      "propertyValue": 0,
      "prosperity": 100,
      "randomResourceUp": 0,
      "randomResourceWeightsUp": 0,
      "resourceUp": 14,
      "reward": "",
      "time": 60
    },
    "1804": {
      "Tags": [],
      "condition": [
        502106
      ],
      "cost": "{\"0\": {\"type\": 0, \"id\": 7, \"count\": 400, \"param\": 0}}",
      "directlyCompleteCost": "{\"0\": {\"type\": 0, \"id\": 2, \"count\": 50, \"param\": 0}}",
      "dropReplace": "",
      "id": 1804,
      "propertiesLocation": 0,
      "propertyId": 0,
      "propertyValue": 0,
      "prosperity": 100,
      "randomResourceUp": 0,
      "randomResourceWeightsUp": 0,
      "resourceUp": 16,
      "reward": "",
      "time": 300
    },
    "1805": {
      "Tags": [],
      "condition": [
        502106
      ],
      "cost": "{\"0\": {\"type\": 0, \"id\": 7, \"count\": 500, \"param\": 0}}",
      "directlyCompleteCost": "{\"0\": {\"type\": 0, \"id\": 2, \"count\": 50, \"param\": 0}}",
      "dropReplace": "",
      "id": 1805,
      "propertiesLocation": 0,
      "propertyId": 0,
      "propertyValue": 0,
      "prosperity": 100,
      "randomResourceUp": 0,
      "randomResourceWeightsUp": 0,
      "resourceUp": 18,
      "reward": "",
      "time": 600
    },
    "1806": {
      "Tags": [],
      "condition": [],
      "cost": "{\"0\": {\"type\": 0, \"id\": 7, \"count\": 99999999, \"param\": 0}}",
      "directlyCompleteCost": "",
      "dropReplace": "",
      "id": 1806,
      "propertiesLocation": 0,
      "propertyId": 0,
      "propertyValue": 0,
      "prosperity": 100,
      "randomResourceUp": 0,
      "randomResourceWeightsUp": 0,
      "resourceUp": 20,
      "reward": "",
      "time": 0
    },
    "1901": {
      "Tags": [],
      "condition": [
        502106
      ],
      "cost": "{\"0\": {\"type\": 0, \"id\": 7, \"count\": 100, \"param\": 0}}",
      "directlyCompleteCost": "{\"0\": {\"type\": 0, \"id\": 2, \"count\": 50, \"param\": 0}}",
      "dropReplace": "",
      "id": 1901,
      "propertiesLocation": 0,
      "propertyId": 0,
      "propertyValue": 0,
      "prosperity": 0,
      "randomResourceUp": 0,
      "randomResourceWeightsUp": 0,
      "resourceUp": 0,
      "reward": "",
      "time": 10
    },
    "1902": {
      "Tags": [],
      "condition": [
        502106
      ],
      "cost": "{\"0\": {\"type\": 0, \"id\": 7, \"count\": 200, \"param\": 0}}",
      "directlyCompleteCost": "{\"0\": {\"type\": 0, \"id\": 2, \"count\": 50, \"param\": 0}}",
      "dropReplace": "",
      "id": 1902,
      "propertiesLocation": 0,
      "propertyId": 0,
      "propertyValue": 0,
      "prosperity": 100,
      "randomResourceUp": 6,
      "randomResourceWeightsUp": 0,
      "resourceUp": 0,
      "reward": "",
      "time": 30
    },
    "1903": {
      "Tags": [],
      "condition": [
        502106
      ],
      "cost": "{\"0\": {\"type\": 0, \"id\": 7, \"count\": 300, \"param\": 0}}",
      "directlyCompleteCost": "{\"0\": {\"type\": 0, \"id\": 2, \"count\": 50, \"param\": 0}}",
      "dropReplace": "",
      "id": 1903,
      "propertiesLocation": 0,
      "propertyId": 0,
      "propertyValue": 0,
      "prosperity": 100,
      "randomResourceUp": 7,
      "randomResourceWeightsUp": 0,
      "resourceUp": 0,
      "reward": "",
      "time": 60
    },
    "1904": {
      "Tags": [],
      "condition": [
        502106
      ],
      "cost": "{\"0\": {\"type\": 0, \"id\": 7, \"count\": 400, \"param\": 0}}",
      "directlyCompleteCost": "{\"0\": {\"type\": 0, \"id\": 2, \"count\": 50, \"param\": 0}}",
      "dropReplace": "",
      "id": 1904,
      "propertiesLocation": 0,
      "propertyId": 0,
      "propertyValue": 0,
      "prosperity": 100,
      "randomResourceUp": 8,
      "randomResourceWeightsUp": 0,
      "resourceUp": 0,
      "reward": "",
      "time": 300
    },
    "1905": {
      "Tags": [],
      "condition": [
        502106
      ],
      "cost": "{\"0\": {\"type\": 0, \"id\": 7, \"count\": 500, \"param\": 0}}",
      "directlyCompleteCost": "{\"0\": {\"type\": 0, \"id\": 2, \"count\": 50, \"param\": 0}}",
      "dropReplace": "",
      "id": 1905,
      "propertiesLocation": 0,
      "propertyId": 0,
      "propertyValue": 0,
      "prosperity": 100,
      "randomResourceUp": 9,
      "randomResourceWeightsUp": 0,
      "resourceUp": 0,
      "reward": "",
      "time": 600
    },
    "1906": {
      "Tags": [],
      "condition": [],
      "cost": "{\"0\": {\"type\": 0, \"id\": 7, \"count\": 99999999, \"param\": 0}}",
      "directlyCompleteCost": "",
      "dropReplace": "",
      "id": 1906,
      "propertiesLocation": 0,
      "propertyId": 0,
      "propertyValue": 0,
      "prosperity": 100,
      "randomResourceUp": 10,
      "randomResourceWeightsUp": 0,
      "resourceUp": 0,
      "reward": "",
      "time": 0
    },
    "2001": {
      "Tags": [],
      "condition": [
        502106
      ],
      "cost": "{\"0\": {\"type\": 0, \"id\": 7, \"count\": 100, \"param\": 0}}",
      "directlyCompleteCost": "{\"0\": {\"type\": 0, \"id\": 2, \"count\": 50, \"param\": 0}}",
      "dropReplace": "",
      "id": 2001,
      "propertiesLocation": 0,
      "propertyId": 0,
      "propertyValue": 0,
      "prosperity": 0,
      "randomResourceUp": 0,
      "randomResourceWeightsUp": 0,
      "resourceUp": 0,
      "reward": "",
      "time": 10
    },
    "2002": {
      "Tags": [],
      "condition": [
        502106
      ],
      "cost": "{\"0\": {\"type\": 0, \"id\": 7, \"count\": 200, \"param\": 0}}",
      "directlyCompleteCost": "{\"0\": {\"type\": 0, \"id\": 2, \"count\": 50, \"param\": 0}}",
      "dropReplace": "",
      "id": 2002,
      "propertiesLocation": 0,
      "propertyId": 0,
      "propertyValue": 0,
      "prosperity": 100,
      "randomResourceUp": 0,
      "randomResourceWeightsUp": 0,
      "resourceUp": 6,
      "reward": "",
      "time": 30
    },
    "2003": {
      "Tags": [],
      "condition": [
        502106
      ],
      "cost": "{\"0\": {\"type\": 0, \"id\": 7, \"count\": 300, \"param\": 0}}",
      "directlyCompleteCost": "{\"0\": {\"type\": 0, \"id\": 2, \"count\": 50, \"param\": 0}}",
      "dropReplace": "",
      "id": 2003,
      "propertiesLocation": 0,
      "propertyId": 0,
      "propertyValue": 0,
      "prosperity": 100,
      "randomResourceUp": 0,
      "randomResourceWeightsUp": 0,
      "resourceUp": 7,
      "reward": "",
      "time": 60
    },
    "2004": {
      "Tags": [],
      "condition": [
        502106
      ],
      "cost": "{\"0\": {\"type\": 0, \"id\": 7, \"count\": 400, \"param\": 0}}",
      "directlyCompleteCost": "{\"0\": {\"type\": 0, \"id\": 2, \"count\": 50, \"param\": 0}}",
      "dropReplace": "",
      "id": 2004,
      "propertiesLocation": 0,
      "propertyId": 0,
      "propertyValue": 0,
      "prosperity": 100,
      "randomResourceUp": 0,
      "randomResourceWeightsUp": 0,
      "resourceUp": 8,
      "reward": "",
      "time": 300
    },
    "2005": {
      "Tags": [],
      "condition": [
        502106
      ],
      "cost": "{\"0\": {\"type\": 0, \"id\": 7, \"count\": 500, \"param\": 0}}",
      "directlyCompleteCost": "{\"0\": {\"type\": 0, \"id\": 2, \"count\": 50, \"param\": 0}}",
      "dropReplace": "",
      "id": 2005,
      "propertiesLocation": 0,
      "propertyId": 0,
      "propertyValue": 0,
      "prosperity": 100,
      "randomResourceUp": 0,
      "randomResourceWeightsUp": 0,
      "resourceUp": 9,
      "reward": "",
      "time": 600
    },
    "2006": {
      "Tags": [],
      "condition": [],
      "cost": "{\"0\": {\"type\": 0, \"id\": 7, \"count\": 99999999, \"param\": 0}}",
      "directlyCompleteCost": "",
      "dropReplace": "",
      "id": 2006,
      "propertiesLocation": 0,
      "propertyId": 0,
      "propertyValue": 0,
      "prosperity": 100,
      "randomResourceUp": 0,
      "randomResourceWeightsUp": 0,
      "resourceUp": 10,
      "reward": "",
      "time": 0
    },
    "2101": {
      "Tags": [],
      "condition": [
        502107
      ],
      "cost": "{\"0\": {\"type\": 0, \"id\": 7, \"count\": 100, \"param\": 0}}",
      "directlyCompleteCost": "{\"0\": {\"type\": 0, \"id\": 2, \"count\": 50, \"param\": 0}}",
      "dropReplace": "",
      "id": 2101,
      "propertiesLocation": 0,
      "propertyId": 0,
      "propertyValue": 0,
      "prosperity": 0,
      "randomResourceUp": 0,
      "randomResourceWeightsUp": 0,
      "resourceUp": 0,
      "reward": "",
      "time": 10
    },
    "2102": {
      "Tags": [],
      "condition": [
        502107
      ],
      "cost": "{\"0\": {\"type\": 0, \"id\": 7, \"count\": 200, \"param\": 0}}",
      "directlyCompleteCost": "{\"0\": {\"type\": 0, \"id\": 2, \"count\": 50, \"param\": 0}}",
      "dropReplace": "",
      "id": 2102,
      "propertiesLocation": 0,
      "propertyId": 0,
      "propertyValue": 0,
      "prosperity": 100,
      "randomResourceUp": 0,
      "randomResourceWeightsUp": 0,
      "resourceUp": 6,
      "reward": "",
      "time": 30
    },
    "2103": {
      "Tags": [],
      "condition": [
        502107
      ],
      "cost": "{\"0\": {\"type\": 0, \"id\": 7, \"count\": 300, \"param\": 0}}",
      "directlyCompleteCost": "{\"0\": {\"type\": 0, \"id\": 2, \"count\": 50, \"param\": 0}}",
      "dropReplace": "",
      "id": 2103,
      "propertiesLocation": 0,
      "propertyId": 0,
      "propertyValue": 0,
      "prosperity": 100,
      "randomResourceUp": 0,
      "randomResourceWeightsUp": 0,
      "resourceUp": 7,
      "reward": "",
      "time": 60
    },
    "2104": {
      "Tags": [],
      "condition": [
        502107
      ],
      "cost": "{\"0\": {\"type\": 0, \"id\": 7, \"count\": 400, \"param\": 0}}",
      "directlyCompleteCost": "{\"0\": {\"type\": 0, \"id\": 2, \"count\": 50, \"param\": 0}}",
      "dropReplace": "",
      "id": 2104,
      "propertiesLocation": 0,
      "propertyId": 0,
      "propertyValue": 0,
      "prosperity": 100,
      "randomResourceUp": 0,
      "randomResourceWeightsUp": 0,
      "resourceUp": 8,
      "reward": "",
      "time": 300
    },
    "2105": {
      "Tags": [],
      "condition": [
        502107
      ],
      "cost": "{\"0\": {\"type\": 0, \"id\": 7, \"count\": 500, \"param\": 0}}",
      "directlyCompleteCost": "{\"0\": {\"type\": 0, \"id\": 2, \"count\": 50, \"param\": 0}}",
      "dropReplace": "",
      "id": 2105,
      "propertiesLocation": 0,
      "propertyId": 0,
      "propertyValue": 0,
      "prosperity": 100,
      "randomResourceUp": 0,
      "randomResourceWeightsUp": 0,
      "resourceUp": 9,
      "reward": "",
      "time": 600
    },
    "2106": {
      "Tags": [],
      "condition": [],
      "cost": "{\"0\": {\"type\": 0, \"id\": 7, \"count\": 99999999, \"param\": 0}}",
      "directlyCompleteCost": "",
      "dropReplace": "",
      "id": 2106,
      "propertiesLocation": 0,
      "propertyId": 0,
      "propertyValue": 0,
      "prosperity": 100,
      "randomResourceUp": 0,
      "randomResourceWeightsUp": 0,
      "resourceUp": 10,
      "reward": "",
      "time": 0
    },
    "2201": {
      "Tags": [],
      "condition": [
        502107
      ],
      "cost": "{\"0\": {\"type\": 0, \"id\": 7, \"count\": 100, \"param\": 0}}",
      "directlyCompleteCost": "{\"0\": {\"type\": 0, \"id\": 2, \"count\": 50, \"param\": 0}}",
      "dropReplace": "",
      "id": 2201,
      "propertiesLocation": 0,
      "propertyId": 0,
      "propertyValue": 0,
      "prosperity": 0,
      "randomResourceUp": 0,
      "randomResourceWeightsUp": 0,
      "resourceUp": 0,
      "reward": "",
      "time": 10
    },
    "2202": {
      "Tags": [],
      "condition": [
        502107
      ],
      "cost": "{\"0\": {\"type\": 0, \"id\": 7, \"count\": 200, \"param\": 0}}",
      "directlyCompleteCost": "{\"0\": {\"type\": 0, \"id\": 2, \"count\": 50, \"param\": 0}}",
      "dropReplace": "",
      "id": 2202,
      "propertiesLocation": 0,
      "propertyId": 0,
      "propertyValue": 0,
      "prosperity": 100,
      "randomResourceUp": 6,
      "randomResourceWeightsUp": 0,
      "resourceUp": 0,
      "reward": "",
      "time": 30
    },
    "2203": {
      "Tags": [],
      "condition": [
        502107
      ],
      "cost": "{\"0\": {\"type\": 0, \"id\": 7, \"count\": 300, \"param\": 0}}",
      "directlyCompleteCost": "{\"0\": {\"type\": 0, \"id\": 2, \"count\": 50, \"param\": 0}}",
      "dropReplace": "",
      "id": 2203,
      "propertiesLocation": 0,
      "propertyId": 0,
      "propertyValue": 0,
      "prosperity": 100,
      "randomResourceUp": 7,
      "randomResourceWeightsUp": 0,
      "resourceUp": 0,
      "reward": "",
      "time": 60
    },
    "2204": {
      "Tags": [],
      "condition": [
        502107
      ],
      "cost": "{\"0\": {\"type\": 0, \"id\": 7, \"count\": 400, \"param\": 0}}",
      "directlyCompleteCost": "{\"0\": {\"type\": 0, \"id\": 2, \"count\": 50, \"param\": 0}}",
      "dropReplace": "",
      "id": 2204,
      "propertiesLocation": 0,
      "propertyId": 0,
      "propertyValue": 0,
      "prosperity": 100,
      "randomResourceUp": 8,
      "randomResourceWeightsUp": 0,
      "resourceUp": 0,
      "reward": "",
      "time": 300
    },
    "2205": {
      "Tags": [],
      "condition": [
        502107
      ],
      "cost": "{\"0\": {\"type\": 0, \"id\": 7, \"count\": 500, \"param\": 0}}",
      "directlyCompleteCost": "{\"0\": {\"type\": 0, \"id\": 2, \"count\": 50, \"param\": 0}}",
      "dropReplace": "",
      "id": 2205,
      "propertiesLocation": 0,
      "propertyId": 0,
      "propertyValue": 0,
      "prosperity": 100,
      "randomResourceUp": 9,
      "randomResourceWeightsUp": 0,
      "resourceUp": 0,
      "reward": "",
      "time": 600
    },
    "2206": {
      "Tags": [],
      "condition": [],
      "cost": "{\"0\": {\"type\": 0, \"id\": 7, \"count\": 99999999, \"param\": 0}}",
      "directlyCompleteCost": "",
      "dropReplace": "",
      "id": 2206,
      "propertiesLocation": 0,
      "propertyId": 0,
      "propertyValue": 0,
      "prosperity": 100,
      "randomResourceUp": 10,
      "randomResourceWeightsUp": 0,
      "resourceUp": 0,
      "reward": "",
      "time": 0
    },
    "2301": {
      "Tags": [],
      "condition": [
        502107
      ],
      "cost": "{\"0\": {\"type\": 0, \"id\": 7, \"count\": 100, \"param\": 0}}",
      "directlyCompleteCost": "{\"0\": {\"type\": 0, \"id\": 2, \"count\": 50, \"param\": 0}}",
      "dropReplace": "",
      "id": 2301,
      "propertiesLocation": 0,
      "propertyId": 0,
      "propertyValue": 0,
      "prosperity": 0,
      "randomResourceUp": 0,
      "randomResourceWeightsUp": 0,
      "resourceUp": 0,
      "reward": "",
      "time": 10
    },
    "2302": {
      "Tags": [],
      "condition": [
        502107
      ],
      "cost": "{\"0\": {\"type\": 0, \"id\": 7, \"count\": 200, \"param\": 0}}",
      "directlyCompleteCost": "{\"0\": {\"type\": 0, \"id\": 2, \"count\": 50, \"param\": 0}}",
      "dropReplace": "",
      "id": 2302,
      "propertiesLocation": 0,
      "propertyId": 0,
      "propertyValue": 0,
      "prosperity": 100,
      "randomResourceUp": 6,
      "randomResourceWeightsUp": 0,
      "resourceUp": 0,
      "reward": "",
      "time": 30
    },
    "2303": {
      "Tags": [],
      "condition": [
        502107
      ],
      "cost": "{\"0\": {\"type\": 0, \"id\": 7, \"count\": 300, \"param\": 0}}",
      "directlyCompleteCost": "{\"0\": {\"type\": 0, \"id\": 2, \"count\": 50, \"param\": 0}}",
      "dropReplace": "",
      "id": 2303,
      "propertiesLocation": 0,
      "propertyId": 0,
      "propertyValue": 0,
      "prosperity": 100,
      "randomResourceUp": 7,
      "randomResourceWeightsUp": 0,
      "resourceUp": 0,
      "reward": "",
      "time": 60
    },
    "2304": {
      "Tags": [],
      "condition": [
        502107
      ],
      "cost": "{\"0\": {\"type\": 0, \"id\": 7, \"count\": 400, \"param\": 0}}",
      "directlyCompleteCost": "{\"0\": {\"type\": 0, \"id\": 2, \"count\": 50, \"param\": 0}}",
      "dropReplace": "",
      "id": 2304,
      "propertiesLocation": 0,
      "propertyId": 0,
      "propertyValue": 0,
      "prosperity": 100,
      "randomResourceUp": 8,
      "randomResourceWeightsUp": 0,
      "resourceUp": 0,
      "reward": "",
      "time": 300
    },
    "2305": {
      "Tags": [],
      "condition": [
        502107
      ],
      "cost": "{\"0\": {\"type\": 0, \"id\": 7, \"count\": 500, \"param\": 0}}",
      "directlyCompleteCost": "{\"0\": {\"type\": 0, \"id\": 2, \"count\": 50, \"param\": 0}}",
      "dropReplace": "",
      "id": 2305,
      "propertiesLocation": 0,
      "propertyId": 0,
      "propertyValue": 0,
      "prosperity": 100,
      "randomResourceUp": 9,
      "randomResourceWeightsUp": 0,
      "resourceUp": 0,
      "reward": "",
      "time": 600
    },
    "2306": {
      "Tags": [],
      "condition": [],
      "cost": "{\"0\": {\"type\": 0, \"id\": 7, \"count\": 99999999, \"param\": 0}}",
      "directlyCompleteCost": "",
      "dropReplace": "",
      "id": 2306,
      "propertiesLocation": 0,
      "propertyId": 0,
      "propertyValue": 0,
      "prosperity": 100,
      "randomResourceUp": 10,
      "randomResourceWeightsUp": 0,
      "resourceUp": 0,
      "reward": "",
      "time": 0
    },
    "2401": {
      "Tags": [],
      "condition": [
        502108
      ],
      "cost": "{\"0\": {\"type\": 0, \"id\": 7, \"count\": 100, \"param\": 0}}",
      "directlyCompleteCost": "{\"0\": {\"type\": 0, \"id\": 2, \"count\": 50, \"param\": 0}}",
      "dropReplace": "",
      "id": 2401,
      "propertiesLocation": 0,
      "propertyId": 0,
      "propertyValue": 0,
      "prosperity": 0,
      "randomResourceUp": 0,
      "randomResourceWeightsUp": 0,
      "resourceUp": 0,
      "reward": "",
      "time": 10
    },
    "2402": {
      "Tags": [],
      "condition": [
        502108
      ],
      "cost": "{\"0\": {\"type\": 0, \"id\": 7, \"count\": 200, \"param\": 0}}",
      "directlyCompleteCost": "{\"0\": {\"type\": 0, \"id\": 2, \"count\": 50, \"param\": 0}}",
      "dropReplace": "{\"0\": {\"type\": 4, \"id\": 1011, \"count\": 1, \"param\": 0}}",
      "id": 2402,
      "propertiesLocation": 0,
      "propertyId": 0,
      "propertyValue": 0,
      "prosperity": 100,
      "randomResourceUp": 0,
      "randomResourceWeightsUp": 0,
      "resourceUp": 0,
      "reward": "",
      "time": 30
    },
    "2403": {
      "Tags": [],
      "condition": [
        502108
      ],
      "cost": "{\"0\": {\"type\": 0, \"id\": 7, \"count\": 300, \"param\": 0}}",
      "directlyCompleteCost": "{\"0\": {\"type\": 0, \"id\": 2, \"count\": 50, \"param\": 0}}",
      "dropReplace": "{\"0\": {\"type\": 4, \"id\": 1012, \"count\": 1, \"param\": 0}}",
      "id": 2403,
      "propertiesLocation": 0,
      "propertyId": 0,
      "propertyValue": 0,
      "prosperity": 100,
      "randomResourceUp": 0,
      "randomResourceWeightsUp": 0,
      "resourceUp": 0,
      "reward": "",
      "time": 60
    },
    "2404": {
      "Tags": [],
      "condition": [
        502108
      ],
      "cost": "{\"0\": {\"type\": 0, \"id\": 7, \"count\": 400, \"param\": 0}}",
      "directlyCompleteCost": "{\"0\": {\"type\": 0, \"id\": 2, \"count\": 50, \"param\": 0}}",
      "dropReplace": "{\"0\": {\"type\": 4, \"id\": 1013, \"count\": 1, \"param\": 0}}",
      "id": 2404,
      "propertiesLocation": 0,
      "propertyId": 0,
      "propertyValue": 0,
      "prosperity": 100,
      "randomResourceUp": 0,
      "randomResourceWeightsUp": 0,
      "resourceUp": 0,
      "reward": "",
      "time": 300
    },
    "2405": {
      "Tags": [],
      "condition": [
        502108
      ],
      "cost": "{\"0\": {\"type\": 0, \"id\": 7, \"count\": 500, \"param\": 0}}",
      "directlyCompleteCost": "{\"0\": {\"type\": 0, \"id\": 2, \"count\": 50, \"param\": 0}}",
      "dropReplace": "{\"0\": {\"type\": 4, \"id\": 1014, \"count\": 1, \"param\": 0}}",
      "id": 2405,
      "propertiesLocation": 0,
      "propertyId": 0,
      "propertyValue": 0,
      "prosperity": 100,
      "randomResourceUp": 0,
      "randomResourceWeightsUp": 0,
      "resourceUp": 0,
      "reward": "",
      "time": 600
    },
    "2406": {
      "Tags": [],
      "condition": [],
      "cost": "{\"0\": {\"type\": 0, \"id\": 7, \"count\": 99999999, \"param\": 0}}",
      "directlyCompleteCost": "",
      "dropReplace": "{\"0\": {\"type\": 4, \"id\": 1015, \"count\": 1, \"param\": 0}}",
      "id": 2406,
      "propertiesLocation": 0,
      "propertyId": 0,
      "propertyValue": 0,
      "prosperity": 100,
      "randomResourceUp": 0,
      "randomResourceWeightsUp": 0,
      "resourceUp": 0,
      "reward": "",
      "time": 0
    },
    "9999": {
      "Tags": [],
      "condition": [],
      "cost": "",
      "directlyCompleteCost": "",
      "dropReplace": "",
      "id": 9999,
      "propertiesLocation": 0,
      "propertyId": 5,
      "propertyValue": 5000,
      "prosperity": 100,
      "randomResourceUp": 0,
      "randomResourceWeightsUp": 0,
      "resourceUp": 0,
      "reward": "",
      "time": 0
    }
  }
}