{
  "UnionBossBloodConfigs": {
    "1001": {
      "Tags": [],
      "boxIcon": "",
      "boxId": 1001,
      "dropId": 3001,
      "floor": 1,
      "hp": 5000,
      "iconAni": "",
      "id": 1001,
      "normalReward": "{\"0\": {\"type\": 0, \"id\": 1, \"count\": 200, \"param\": 0}, \"1\": {\"type\": 0, \"id\": 11, \"count\": 100, \"param\": 0}}",
      "progressBarTime": 0.0
    },
    "1002": {
      "Tags": [],
      "boxIcon": "",
      "boxId": 1002,
      "dropId": 3002,
      "floor": 2,
      "hp": 10000,
      "iconAni": "",
      "id": 1002,
      "normalReward": "{\"0\": {\"type\": 0, \"id\": 1, \"count\": 200, \"param\": 0}, \"1\": {\"type\": 0, \"id\": 11, \"count\": 100, \"param\": 0}}",
      "progressBarTime": 0.0
    },
    "1003": {
      "Tags": [],
      "boxIcon": "",
      "boxId": 1003,
      "dropId": 3003,
      "floor": 3,
      "hp": 20000,
      "iconAni": "",
      "id": 1003,
      "normalReward": "{\"0\": {\"type\": 0, \"id\": 1, \"count\": 200, \"param\": 0}, \"1\": {\"type\": 0, \"id\": 11, \"count\": 100, \"param\": 0}}",
      "progressBarTime": 0.0
    },
    "1004": {
      "Tags": [],
      "boxIcon": "",
      "boxId": 1004,
      "dropId": 3004,
      "floor": 4,
      "hp": 35000,
      "iconAni": "",
      "id": 1004,
      "normalReward": "{\"0\": {\"type\": 0, \"id\": 1, \"count\": 200, \"param\": 0}, \"1\": {\"type\": 0, \"id\": 11, \"count\": 100, \"param\": 0}}",
      "progressBarTime": 0.0
    },
    "1005": {
      "Tags": [],
      "boxIcon": "",
      "boxId": 1005,
      "dropId": 3005,
      "floor": 5,
      "hp": 55000,
      "iconAni": "",
      "id": 1005,
      "normalReward": "{\"0\": {\"type\": 0, \"id\": 1, \"count\": 200, \"param\": 0}, \"1\": {\"type\": 0, \"id\": 11, \"count\": 100, \"param\": 0}}",
      "progressBarTime": 0.0
    },
    "1006": {
      "Tags": [],
      "boxIcon": "",
      "boxId": 1006,
      "dropId": 3006,
      "floor": 6,
      "hp": 80000,
      "iconAni": "",
      "id": 1006,
      "normalReward": "{\"0\": {\"type\": 0, \"id\": 1, \"count\": 200, \"param\": 0}, \"1\": {\"type\": 0, \"id\": 11, \"count\": 100, \"param\": 0}}",
      "progressBarTime": 0.0
    },
    "1007": {
      "Tags": [],
      "boxIcon": "",
      "boxId": 1007,
      "dropId": 3007,
      "floor": 7,
      "hp": 110000,
      "iconAni": "",
      "id": 1007,
      "normalReward": "{\"0\": {\"type\": 0, \"id\": 1, \"count\": 200, \"param\": 0}, \"1\": {\"type\": 0, \"id\": 11, \"count\": 100, \"param\": 0}}",
      "progressBarTime": 0.0
    },
    "1008": {
      "Tags": [],
      "boxIcon": "",
      "boxId": 1008,
      "dropId": 3008,
      "floor": 8,
      "hp": 145000,
      "iconAni": "",
      "id": 1008,
      "normalReward": "{\"0\": {\"type\": 0, \"id\": 1, \"count\": 200, \"param\": 0}, \"1\": {\"type\": 0, \"id\": 11, \"count\": 100, \"param\": 0}}",
      "progressBarTime": 0.0
    },
    "1009": {
      "Tags": [],
      "boxIcon": "",
      "boxId": 1009,
      "dropId": 3009,
      "floor": 9,
      "hp": 185000,
      "iconAni": "",
      "id": 1009,
      "normalReward": "{\"0\": {\"type\": 0, \"id\": 1, \"count\": 200, \"param\": 0}, \"1\": {\"type\": 0, \"id\": 11, \"count\": 100, \"param\": 0}}",
      "progressBarTime": 0.0
    },
    "1010": {
      "Tags": [],
      "boxIcon": "",
      "boxId": 1010,
      "dropId": 3010,
      "floor": 10,
      "hp": 230000,
      "iconAni": "",
      "id": 1010,
      "normalReward": "{\"0\": {\"type\": 0, \"id\": 1, \"count\": 200, \"param\": 0}, \"1\": {\"type\": 0, \"id\": 11, \"count\": 100, \"param\": 0}}",
      "progressBarTime": 0.0
    },
    "1011": {
      "Tags": [],
      "boxIcon": "",
      "boxId": 1011,
      "dropId": 3011,
      "floor": 11,
      "hp": 280000,
      "iconAni": "",
      "id": 1011,
      "normalReward": "{\"0\": {\"type\": 0, \"id\": 1, \"count\": 200, \"param\": 0}, \"1\": {\"type\": 0, \"id\": 11, \"count\": 100, \"param\": 0}}",
      "progressBarTime": 0.0
    },
    "1012": {
      "Tags": [],
      "boxIcon": "",
      "boxId": 1012,
      "dropId": 3012,
      "floor": 12,
      "hp": 335000,
      "iconAni": "",
      "id": 1012,
      "normalReward": "{\"0\": {\"type\": 0, \"id\": 1, \"count\": 200, \"param\": 0}, \"1\": {\"type\": 0, \"id\": 11, \"count\": 100, \"param\": 0}}",
      "progressBarTime": 0.0
    },
    "1013": {
      "Tags": [],
      "boxIcon": "",
      "boxId": 1013,
      "dropId": 3013,
      "floor": 13,
      "hp": 395000,
      "iconAni": "",
      "id": 1013,
      "normalReward": "{\"0\": {\"type\": 0, \"id\": 1, \"count\": 200, \"param\": 0}, \"1\": {\"type\": 0, \"id\": 11, \"count\": 100, \"param\": 0}}",
      "progressBarTime": 0.0
    },
    "1014": {
      "Tags": [],
      "boxIcon": "",
      "boxId": 1014,
      "dropId": 3014,
      "floor": 14,
      "hp": 460000,
      "iconAni": "",
      "id": 1014,
      "normalReward": "{\"0\": {\"type\": 0, \"id\": 1, \"count\": 200, \"param\": 0}, \"1\": {\"type\": 0, \"id\": 11, \"count\": 100, \"param\": 0}}",
      "progressBarTime": 0.0
    },
    "1015": {
      "Tags": [],
      "boxIcon": "",
      "boxId": 1015,
      "dropId": 3015,
      "floor": 15,
      "hp": 530000,
      "iconAni": "",
      "id": 1015,
      "normalReward": "{\"0\": {\"type\": 0, \"id\": 1, \"count\": 200, \"param\": 0}, \"1\": {\"type\": 0, \"id\": 11, \"count\": 100, \"param\": 0}}",
      "progressBarTime": 0.0
    },
    "1016": {
      "Tags": [],
      "boxIcon": "",
      "boxId": 1016,
      "dropId": 3016,
      "floor": 16,
      "hp": 605000,
      "iconAni": "",
      "id": 1016,
      "normalReward": "{\"0\": {\"type\": 0, \"id\": 1, \"count\": 200, \"param\": 0}, \"1\": {\"type\": 0, \"id\": 11, \"count\": 100, \"param\": 0}}",
      "progressBarTime": 0.0
    },
    "1017": {
      "Tags": [],
      "boxIcon": "",
      "boxId": 1017,
      "dropId": 3017,
      "floor": 17,
      "hp": 685000,
      "iconAni": "",
      "id": 1017,
      "normalReward": "{\"0\": {\"type\": 0, \"id\": 1, \"count\": 200, \"param\": 0}, \"1\": {\"type\": 0, \"id\": 11, \"count\": 100, \"param\": 0}}",
      "progressBarTime": 0.0
    },
    "1018": {
      "Tags": [],
      "boxIcon": "",
      "boxId": 1018,
      "dropId": 3018,
      "floor": 18,
      "hp": 770000,
      "iconAni": "",
      "id": 1018,
      "normalReward": "{\"0\": {\"type\": 0, \"id\": 1, \"count\": 200, \"param\": 0}, \"1\": {\"type\": 0, \"id\": 11, \"count\": 100, \"param\": 0}}",
      "progressBarTime": 0.0
    },
    "1019": {
      "Tags": [],
      "boxIcon": "",
      "boxId": 1019,
      "dropId": 3019,
      "floor": 19,
      "hp": 860000,
      "iconAni": "",
      "id": 1019,
      "normalReward": "{\"0\": {\"type\": 0, \"id\": 1, \"count\": 200, \"param\": 0}, \"1\": {\"type\": 0, \"id\": 11, \"count\": 100, \"param\": 0}}",
      "progressBarTime": 0.0
    },
    "1020": {
      "Tags": [],
      "boxIcon": "",
      "boxId": 1020,
      "dropId": 3020,
      "floor": 20,
      "hp": 955000,
      "iconAni": "",
      "id": 1020,
      "normalReward": "{\"0\": {\"type\": 0, \"id\": 1, \"count\": 200, \"param\": 0}, \"1\": {\"type\": 0, \"id\": 11, \"count\": 100, \"param\": 0}}",
      "progressBarTime": 0.0
    },
    "2001": {
      "Tags": [],
      "boxIcon": "",
      "boxId": 2001,
      "dropId": 3501,
      "floor": 1,
      "hp": 5000,
      "iconAni": "",
      "id": 2001,
      "normalReward": "{\"0\": {\"type\": 0, \"id\": 1, \"count\": 200, \"param\": 0}, \"1\": {\"type\": 0, \"id\": 11, \"count\": 100, \"param\": 0}}",
      "progressBarTime": 0.0
    },
    "2002": {
      "Tags": [],
      "boxIcon": "",
      "boxId": 2002,
      "dropId": 3502,
      "floor": 2,
      "hp": 10000,
      "iconAni": "",
      "id": 2002,
      "normalReward": "{\"0\": {\"type\": 0, \"id\": 1, \"count\": 200, \"param\": 0}, \"1\": {\"type\": 0, \"id\": 11, \"count\": 100, \"param\": 0}}",
      "progressBarTime": 0.0
    },
    "2003": {
      "Tags": [],
      "boxIcon": "",
      "boxId": 2003,
      "dropId": 3503,
      "floor": 3,
      "hp": 20000,
      "iconAni": "",
      "id": 2003,
      "normalReward": "{\"0\": {\"type\": 0, \"id\": 1, \"count\": 200, \"param\": 0}, \"1\": {\"type\": 0, \"id\": 11, \"count\": 100, \"param\": 0}}",
      "progressBarTime": 0.0
    },
    "2004": {
      "Tags": [],
      "boxIcon": "",
      "boxId": 2004,
      "dropId": 3504,
      "floor": 4,
      "hp": 35000,
      "iconAni": "",
      "id": 2004,
      "normalReward": "{\"0\": {\"type\": 0, \"id\": 1, \"count\": 200, \"param\": 0}, \"1\": {\"type\": 0, \"id\": 11, \"count\": 100, \"param\": 0}}",
      "progressBarTime": 0.0
    },
    "2005": {
      "Tags": [],
      "boxIcon": "",
      "boxId": 2005,
      "dropId": 3505,
      "floor": 5,
      "hp": 55000,
      "iconAni": "",
      "id": 2005,
      "normalReward": "{\"0\": {\"type\": 0, \"id\": 1, \"count\": 200, \"param\": 0}, \"1\": {\"type\": 0, \"id\": 11, \"count\": 100, \"param\": 0}}",
      "progressBarTime": 0.0
    },
    "2006": {
      "Tags": [],
      "boxIcon": "",
      "boxId": 2006,
      "dropId": 3506,
      "floor": 6,
      "hp": 80000,
      "iconAni": "",
      "id": 2006,
      "normalReward": "{\"0\": {\"type\": 0, \"id\": 1, \"count\": 200, \"param\": 0}, \"1\": {\"type\": 0, \"id\": 11, \"count\": 100, \"param\": 0}}",
      "progressBarTime": 0.0
    },
    "2007": {
      "Tags": [],
      "boxIcon": "",
      "boxId": 2007,
      "dropId": 3507,
      "floor": 7,
      "hp": 110000,
      "iconAni": "",
      "id": 2007,
      "normalReward": "{\"0\": {\"type\": 0, \"id\": 1, \"count\": 200, \"param\": 0}, \"1\": {\"type\": 0, \"id\": 11, \"count\": 100, \"param\": 0}}",
      "progressBarTime": 0.0
    },
    "2008": {
      "Tags": [],
      "boxIcon": "",
      "boxId": 2008,
      "dropId": 3508,
      "floor": 8,
      "hp": 145000,
      "iconAni": "",
      "id": 2008,
      "normalReward": "{\"0\": {\"type\": 0, \"id\": 1, \"count\": 200, \"param\": 0}, \"1\": {\"type\": 0, \"id\": 11, \"count\": 100, \"param\": 0}}",
      "progressBarTime": 0.0
    },
    "2009": {
      "Tags": [],
      "boxIcon": "",
      "boxId": 2009,
      "dropId": 3509,
      "floor": 9,
      "hp": 185000,
      "iconAni": "",
      "id": 2009,
      "normalReward": "{\"0\": {\"type\": 0, \"id\": 1, \"count\": 200, \"param\": 0}, \"1\": {\"type\": 0, \"id\": 11, \"count\": 100, \"param\": 0}}",
      "progressBarTime": 0.0
    },
    "2010": {
      "Tags": [],
      "boxIcon": "",
      "boxId": 2010,
      "dropId": 3510,
      "floor": 10,
      "hp": 230000,
      "iconAni": "",
      "id": 2010,
      "normalReward": "{\"0\": {\"type\": 0, \"id\": 1, \"count\": 200, \"param\": 0}, \"1\": {\"type\": 0, \"id\": 11, \"count\": 100, \"param\": 0}}",
      "progressBarTime": 0.0
    },
    "2011": {
      "Tags": [],
      "boxIcon": "",
      "boxId": 2011,
      "dropId": 3511,
      "floor": 11,
      "hp": 280000,
      "iconAni": "",
      "id": 2011,
      "normalReward": "{\"0\": {\"type\": 0, \"id\": 1, \"count\": 200, \"param\": 0}, \"1\": {\"type\": 0, \"id\": 11, \"count\": 100, \"param\": 0}}",
      "progressBarTime": 0.0
    },
    "2012": {
      "Tags": [],
      "boxIcon": "",
      "boxId": 2012,
      "dropId": 3512,
      "floor": 12,
      "hp": 335000,
      "iconAni": "",
      "id": 2012,
      "normalReward": "{\"0\": {\"type\": 0, \"id\": 1, \"count\": 200, \"param\": 0}, \"1\": {\"type\": 0, \"id\": 11, \"count\": 100, \"param\": 0}}",
      "progressBarTime": 0.0
    },
    "2013": {
      "Tags": [],
      "boxIcon": "",
      "boxId": 2013,
      "dropId": 3513,
      "floor": 13,
      "hp": 395000,
      "iconAni": "",
      "id": 2013,
      "normalReward": "{\"0\": {\"type\": 0, \"id\": 1, \"count\": 200, \"param\": 0}, \"1\": {\"type\": 0, \"id\": 11, \"count\": 100, \"param\": 0}}",
      "progressBarTime": 0.0
    },
    "2014": {
      "Tags": [],
      "boxIcon": "",
      "boxId": 2014,
      "dropId": 3514,
      "floor": 14,
      "hp": 460000,
      "iconAni": "",
      "id": 2014,
      "normalReward": "{\"0\": {\"type\": 0, \"id\": 1, \"count\": 200, \"param\": 0}, \"1\": {\"type\": 0, \"id\": 11, \"count\": 100, \"param\": 0}}",
      "progressBarTime": 0.0
    },
    "2015": {
      "Tags": [],
      "boxIcon": "",
      "boxId": 2015,
      "dropId": 3515,
      "floor": 15,
      "hp": 530000,
      "iconAni": "",
      "id": 2015,
      "normalReward": "{\"0\": {\"type\": 0, \"id\": 1, \"count\": 200, \"param\": 0}, \"1\": {\"type\": 0, \"id\": 11, \"count\": 100, \"param\": 0}}",
      "progressBarTime": 0.0
    },
    "2016": {
      "Tags": [],
      "boxIcon": "",
      "boxId": 2016,
      "dropId": 3516,
      "floor": 16,
      "hp": 605000,
      "iconAni": "",
      "id": 2016,
      "normalReward": "{\"0\": {\"type\": 0, \"id\": 1, \"count\": 200, \"param\": 0}, \"1\": {\"type\": 0, \"id\": 11, \"count\": 100, \"param\": 0}}",
      "progressBarTime": 0.0
    },
    "2017": {
      "Tags": [],
      "boxIcon": "",
      "boxId": 2017,
      "dropId": 3517,
      "floor": 17,
      "hp": 685000,
      "iconAni": "",
      "id": 2017,
      "normalReward": "{\"0\": {\"type\": 0, \"id\": 1, \"count\": 200, \"param\": 0}, \"1\": {\"type\": 0, \"id\": 11, \"count\": 100, \"param\": 0}}",
      "progressBarTime": 0.0
    },
    "2018": {
      "Tags": [],
      "boxIcon": "",
      "boxId": 2018,
      "dropId": 3518,
      "floor": 18,
      "hp": 770000,
      "iconAni": "",
      "id": 2018,
      "normalReward": "{\"0\": {\"type\": 0, \"id\": 1, \"count\": 200, \"param\": 0}, \"1\": {\"type\": 0, \"id\": 11, \"count\": 100, \"param\": 0}}",
      "progressBarTime": 0.0
    },
    "2019": {
      "Tags": [],
      "boxIcon": "",
      "boxId": 2019,
      "dropId": 3519,
      "floor": 19,
      "hp": 860000,
      "iconAni": "",
      "id": 2019,
      "normalReward": "{\"0\": {\"type\": 0, \"id\": 1, \"count\": 200, \"param\": 0}, \"1\": {\"type\": 0, \"id\": 11, \"count\": 100, \"param\": 0}}",
      "progressBarTime": 0.0
    },
    "2020": {
      "Tags": [],
      "boxIcon": "",
      "boxId": 2020,
      "dropId": 3520,
      "floor": 20,
      "hp": 955000,
      "iconAni": "",
      "id": 2020,
      "normalReward": "{\"0\": {\"type\": 0, \"id\": 1, \"count\": 200, \"param\": 0}, \"1\": {\"type\": 0, \"id\": 11, \"count\": 100, \"param\": 0}}",
      "progressBarTime": 0.0
    }
  }
}