{
  "UnionBossConfigs": {
    "1": {
      "Tags": [],
      "bloodId": [
        1001,
        1002,
        1003,
        1004,
        1005,
        1006,
        1007,
        1008,
        1009,
        1010,
        1011,
        1012,
        1013,
        1014,
        1015,
        1016,
        1017,
        1018,
        1019,
        1020
      ],
      "id": 1,
      "instanceId": 101,
      "monsterId": 10101,
      "showBossDescribe": 0,
      "showReward": "",
      "showSkillIcon": "",
      "showSkillName": [],
      "showSkillTips": [],
      "spine": ""
    },
    "2": {
      "Tags": [],
      "bloodId": [
        2001,
        2002,
        2003,
        2004,
        2005,
        2006,
        2007,
        2008,
        2009,
        2010,
        2011,
        2012,
        2013,
        2014,
        2015,
        2016,
        2017,
        2018,
        2019,
        2020
      ],
      "id": 2,
      "instanceId": 102,
      "monsterId": 10102,
      "showBossDescribe": 0,
      "showReward": "",
      "showSkillIcon": "",
      "showSkillName": [],
      "showSkillTips": [],
      "spine": ""
    }
  }
}