{
  "WarInstanceRewardConfigs": {
    "1001": {
      "Tags": [],
      "id": 1001,
      "needStar": 3,
      "reward": "{\"0\": {\"type\": 0, \"id\": 1, \"count\": 135000, \"civil\": 0, \"level\": 0, \"star\": 0}, \"1\": {\"type\": 0, \"id\": 5, \"count\": 27000, \"civil\": 0, \"level\": 0, \"star\": 0}, \"2\": {\"type\": 0, \"id\": 6, \"count\": 125, \"civil\": 0, \"level\": 0, \"star\": 0}}",
      "sort": 1,
      "type": 1
    },
    "1002": {
      "Tags": [],
      "id": 1002,
      "needStar": 6,
      "reward": "{\"0\": {\"type\": 0, \"id\": 1, \"count\": 135000, \"civil\": 0, \"level\": 0, \"star\": 0}, \"1\": {\"type\": 0, \"id\": 5, \"count\": 27000, \"civil\": 0, \"level\": 0, \"star\": 0}, \"2\": {\"type\": 0, \"id\": 6, \"count\": 125, \"civil\": 0, \"level\": 0, \"star\": 0}}",
      "sort": 2,
      "type": 1
    },
    "1003": {
      "Tags": [],
      "id": 1003,
      "needStar": 9,
      "reward": "{\"0\": {\"type\": 0, \"id\": 1, \"count\": 135000, \"civil\": 0, \"level\": 0, \"star\": 0}, \"1\": {\"type\": 0, \"id\": 5, \"count\": 27000, \"civil\": 0, \"level\": 0, \"star\": 0}, \"2\": {\"type\": 0, \"id\": 6, \"count\": 125, \"civil\": 0, \"level\": 0, \"star\": 0}}",
      "sort": 3,
      "type": 1
    },
    "1004": {
      "Tags": [],
      "id": 1004,
      "needStar": 12,
      "reward": "{\"0\": {\"type\": 0, \"id\": 1, \"count\": 135000, \"civil\": 0, \"level\": 0, \"star\": 0}, \"1\": {\"type\": 0, \"id\": 5, \"count\": 27000, \"civil\": 0, \"level\": 0, \"star\": 0}, \"2\": {\"type\": 0, \"id\": 6, \"count\": 125, \"civil\": 0, \"level\": 0, \"star\": 0}}",
      "sort": 4,
      "type": 1
    },
    "1005": {
      "Tags": [],
      "id": 1005,
      "needStar": 15,
      "reward": "{\"0\": {\"type\": 0, \"id\": 1, \"count\": 135000, \"civil\": 0, \"level\": 0, \"star\": 0}, \"1\": {\"type\": 0, \"id\": 5, \"count\": 27000, \"civil\": 0, \"level\": 0, \"star\": 0}, \"2\": {\"type\": 0, \"id\": 6, \"count\": 125, \"civil\": 0, \"level\": 0, \"star\": 0}}",
      "sort": 5,
      "type": 1
    },
    "1006": {
      "Tags": [],
      "id": 1006,
      "needStar": 18,
      "reward": "{\"0\": {\"type\": 0, \"id\": 1, \"count\": 135000, \"civil\": 0, \"level\": 0, \"star\": 0}, \"1\": {\"type\": 0, \"id\": 5, \"count\": 27000, \"civil\": 0, \"level\": 0, \"star\": 0}, \"2\": {\"type\": 0, \"id\": 6, \"count\": 125, \"civil\": 0, \"level\": 0, \"star\": 0}}",
      "sort": 6,
      "type": 1
    },
    "1007": {
      "Tags": [],
      "id": 1007,
      "needStar": 21,
      "reward": "{\"0\": {\"type\": 0, \"id\": 1, \"count\": 135000, \"civil\": 0, \"level\": 0, \"star\": 0}, \"1\": {\"type\": 0, \"id\": 5, \"count\": 27000, \"civil\": 0, \"level\": 0, \"star\": 0}, \"2\": {\"type\": 0, \"id\": 6, \"count\": 125, \"civil\": 0, \"level\": 0, \"star\": 0}}",
      "sort": 7,
      "type": 1
    },
    "1008": {
      "Tags": [],
      "id": 1008,
      "needStar": 24,
      "reward": "{\"0\": {\"type\": 0, \"id\": 1, \"count\": 135000, \"civil\": 0, \"level\": 0, \"star\": 0}, \"1\": {\"type\": 0, \"id\": 5, \"count\": 27000, \"civil\": 0, \"level\": 0, \"star\": 0}, \"2\": {\"type\": 0, \"id\": 6, \"count\": 125, \"civil\": 0, \"level\": 0, \"star\": 0}}",
      "sort": 8,
      "type": 1
    },
    "1009": {
      "Tags": [],
      "id": 1009,
      "needStar": 27,
      "reward": "{\"0\": {\"type\": 0, \"id\": 1, \"count\": 135000, \"civil\": 0, \"level\": 0, \"star\": 0}, \"1\": {\"type\": 0, \"id\": 5, \"count\": 27000, \"civil\": 0, \"level\": 0, \"star\": 0}, \"2\": {\"type\": 0, \"id\": 6, \"count\": 125, \"civil\": 0, \"level\": 0, \"star\": 0}}",
      "sort": 9,
      "type": 1
    },
    "1010": {
      "Tags": [],
      "id": 1010,
      "needStar": 30,
      "reward": "{\"0\": {\"type\": 0, \"id\": 1, \"count\": 135000, \"civil\": 0, \"level\": 0, \"star\": 0}, \"1\": {\"type\": 0, \"id\": 5, \"count\": 27000, \"civil\": 0, \"level\": 0, \"star\": 0}, \"2\": {\"type\": 0, \"id\": 6, \"count\": 125, \"civil\": 0, \"level\": 0, \"star\": 0}}",
      "sort": 10,
      "type": 1
    },
    "1011": {
      "Tags": [],
      "id": 1011,
      "needStar": 33,
      "reward": "{\"0\": {\"type\": 0, \"id\": 1, \"count\": 135000, \"civil\": 0, \"level\": 0, \"star\": 0}, \"1\": {\"type\": 0, \"id\": 5, \"count\": 27000, \"civil\": 0, \"level\": 0, \"star\": 0}, \"2\": {\"type\": 0, \"id\": 6, \"count\": 125, \"civil\": 0, \"level\": 0, \"star\": 0}}",
      "sort": 11,
      "type": 1
    },
    "1012": {
      "Tags": [],
      "id": 1012,
      "needStar": 36,
      "reward": "{\"0\": {\"type\": 0, \"id\": 1, \"count\": 135000, \"civil\": 0, \"level\": 0, \"star\": 0}, \"1\": {\"type\": 0, \"id\": 5, \"count\": 27000, \"civil\": 0, \"level\": 0, \"star\": 0}, \"2\": {\"type\": 0, \"id\": 6, \"count\": 125, \"civil\": 0, \"level\": 0, \"star\": 0}}",
      "sort": 12,
      "type": 1
    },
    "1101": {
      "Tags": [],
      "id": 1101,
      "needStar": 3,
      "reward": "{\"0\": {\"type\": 0, \"id\": 1, \"count\": 135000, \"civil\": 0, \"level\": 0, \"star\": 0}, \"1\": {\"type\": 0, \"id\": 5, \"count\": 27000, \"civil\": 0, \"level\": 0, \"star\": 0}, \"2\": {\"type\": 0, \"id\": 6, \"count\": 125, \"civil\": 0, \"level\": 0, \"star\": 0}}",
      "sort": 1,
      "type": 2
    },
    "1102": {
      "Tags": [],
      "id": 1102,
      "needStar": 6,
      "reward": "{\"0\": {\"type\": 0, \"id\": 1, \"count\": 135000, \"civil\": 0, \"level\": 0, \"star\": 0}, \"1\": {\"type\": 0, \"id\": 5, \"count\": 27000, \"civil\": 0, \"level\": 0, \"star\": 0}, \"2\": {\"type\": 0, \"id\": 6, \"count\": 125, \"civil\": 0, \"level\": 0, \"star\": 0}}",
      "sort": 2,
      "type": 2
    },
    "1103": {
      "Tags": [],
      "id": 1103,
      "needStar": 9,
      "reward": "{\"0\": {\"type\": 0, \"id\": 1, \"count\": 135000, \"civil\": 0, \"level\": 0, \"star\": 0}, \"1\": {\"type\": 0, \"id\": 5, \"count\": 27000, \"civil\": 0, \"level\": 0, \"star\": 0}, \"2\": {\"type\": 0, \"id\": 6, \"count\": 125, \"civil\": 0, \"level\": 0, \"star\": 0}}",
      "sort": 3,
      "type": 2
    },
    "1104": {
      "Tags": [],
      "id": 1104,
      "needStar": 12,
      "reward": "{\"0\": {\"type\": 0, \"id\": 1, \"count\": 135000, \"civil\": 0, \"level\": 0, \"star\": 0}, \"1\": {\"type\": 0, \"id\": 5, \"count\": 27000, \"civil\": 0, \"level\": 0, \"star\": 0}, \"2\": {\"type\": 0, \"id\": 6, \"count\": 125, \"civil\": 0, \"level\": 0, \"star\": 0}}",
      "sort": 4,
      "type": 2
    },
    "1105": {
      "Tags": [],
      "id": 1105,
      "needStar": 15,
      "reward": "{\"0\": {\"type\": 0, \"id\": 1, \"count\": 135000, \"civil\": 0, \"level\": 0, \"star\": 0}, \"1\": {\"type\": 0, \"id\": 5, \"count\": 27000, \"civil\": 0, \"level\": 0, \"star\": 0}, \"2\": {\"type\": 0, \"id\": 6, \"count\": 125, \"civil\": 0, \"level\": 0, \"star\": 0}}",
      "sort": 5,
      "type": 2
    },
    "1106": {
      "Tags": [],
      "id": 1106,
      "needStar": 18,
      "reward": "{\"0\": {\"type\": 0, \"id\": 1, \"count\": 135000, \"civil\": 0, \"level\": 0, \"star\": 0}, \"1\": {\"type\": 0, \"id\": 5, \"count\": 27000, \"civil\": 0, \"level\": 0, \"star\": 0}, \"2\": {\"type\": 0, \"id\": 6, \"count\": 125, \"civil\": 0, \"level\": 0, \"star\": 0}}",
      "sort": 6,
      "type": 2
    },
    "1107": {
      "Tags": [],
      "id": 1107,
      "needStar": 21,
      "reward": "{\"0\": {\"type\": 0, \"id\": 1, \"count\": 135000, \"civil\": 0, \"level\": 0, \"star\": 0}, \"1\": {\"type\": 0, \"id\": 5, \"count\": 27000, \"civil\": 0, \"level\": 0, \"star\": 0}, \"2\": {\"type\": 0, \"id\": 6, \"count\": 125, \"civil\": 0, \"level\": 0, \"star\": 0}}",
      "sort": 7,
      "type": 2
    },
    "1108": {
      "Tags": [],
      "id": 1108,
      "needStar": 24,
      "reward": "{\"0\": {\"type\": 0, \"id\": 1, \"count\": 135000, \"civil\": 0, \"level\": 0, \"star\": 0}, \"1\": {\"type\": 0, \"id\": 5, \"count\": 27000, \"civil\": 0, \"level\": 0, \"star\": 0}, \"2\": {\"type\": 0, \"id\": 6, \"count\": 125, \"civil\": 0, \"level\": 0, \"star\": 0}}",
      "sort": 8,
      "type": 2
    },
    "1109": {
      "Tags": [],
      "id": 1109,
      "needStar": 27,
      "reward": "{\"0\": {\"type\": 0, \"id\": 1, \"count\": 135000, \"civil\": 0, \"level\": 0, \"star\": 0}, \"1\": {\"type\": 0, \"id\": 5, \"count\": 27000, \"civil\": 0, \"level\": 0, \"star\": 0}, \"2\": {\"type\": 0, \"id\": 6, \"count\": 125, \"civil\": 0, \"level\": 0, \"star\": 0}}",
      "sort": 9,
      "type": 2
    },
    "1110": {
      "Tags": [],
      "id": 1110,
      "needStar": 30,
      "reward": "{\"0\": {\"type\": 0, \"id\": 1, \"count\": 135000, \"civil\": 0, \"level\": 0, \"star\": 0}, \"1\": {\"type\": 0, \"id\": 5, \"count\": 27000, \"civil\": 0, \"level\": 0, \"star\": 0}, \"2\": {\"type\": 0, \"id\": 6, \"count\": 125, \"civil\": 0, \"level\": 0, \"star\": 0}}",
      "sort": 10,
      "type": 2
    },
    "1111": {
      "Tags": [],
      "id": 1111,
      "needStar": 33,
      "reward": "{\"0\": {\"type\": 0, \"id\": 1, \"count\": 135000, \"civil\": 0, \"level\": 0, \"star\": 0}, \"1\": {\"type\": 0, \"id\": 5, \"count\": 27000, \"civil\": 0, \"level\": 0, \"star\": 0}, \"2\": {\"type\": 0, \"id\": 6, \"count\": 125, \"civil\": 0, \"level\": 0, \"star\": 0}}",
      "sort": 11,
      "type": 2
    },
    "1112": {
      "Tags": [],
      "id": 1112,
      "needStar": 36,
      "reward": "{\"0\": {\"type\": 0, \"id\": 1, \"count\": 135000, \"civil\": 0, \"level\": 0, \"star\": 0}, \"1\": {\"type\": 0, \"id\": 5, \"count\": 27000, \"civil\": 0, \"level\": 0, \"star\": 0}, \"2\": {\"type\": 0, \"id\": 6, \"count\": 125, \"civil\": 0, \"level\": 0, \"star\": 0}}",
      "sort": 12,
      "type": 2
    },
    "1201": {
      "Tags": [],
      "id": 1201,
      "needStar": 3,
      "reward": "{\"0\": {\"type\": 0, \"id\": 1, \"count\": 135000, \"civil\": 0, \"level\": 0, \"star\": 0}, \"1\": {\"type\": 0, \"id\": 5, \"count\": 27000, \"civil\": 0, \"level\": 0, \"star\": 0}, \"2\": {\"type\": 0, \"id\": 6, \"count\": 125, \"civil\": 0, \"level\": 0, \"star\": 0}}",
      "sort": 1,
      "type": 3
    },
    "1202": {
      "Tags": [],
      "id": 1202,
      "needStar": 6,
      "reward": "{\"0\": {\"type\": 0, \"id\": 1, \"count\": 135000, \"civil\": 0, \"level\": 0, \"star\": 0}, \"1\": {\"type\": 0, \"id\": 5, \"count\": 27000, \"civil\": 0, \"level\": 0, \"star\": 0}, \"2\": {\"type\": 0, \"id\": 6, \"count\": 125, \"civil\": 0, \"level\": 0, \"star\": 0}}",
      "sort": 2,
      "type": 3
    },
    "1203": {
      "Tags": [],
      "id": 1203,
      "needStar": 9,
      "reward": "{\"0\": {\"type\": 0, \"id\": 1, \"count\": 135000, \"civil\": 0, \"level\": 0, \"star\": 0}, \"1\": {\"type\": 0, \"id\": 5, \"count\": 27000, \"civil\": 0, \"level\": 0, \"star\": 0}, \"2\": {\"type\": 0, \"id\": 6, \"count\": 125, \"civil\": 0, \"level\": 0, \"star\": 0}}",
      "sort": 3,
      "type": 3
    },
    "1204": {
      "Tags": [],
      "id": 1204,
      "needStar": 12,
      "reward": "{\"0\": {\"type\": 0, \"id\": 1, \"count\": 135000, \"civil\": 0, \"level\": 0, \"star\": 0}, \"1\": {\"type\": 0, \"id\": 5, \"count\": 27000, \"civil\": 0, \"level\": 0, \"star\": 0}, \"2\": {\"type\": 0, \"id\": 6, \"count\": 125, \"civil\": 0, \"level\": 0, \"star\": 0}}",
      "sort": 4,
      "type": 3
    },
    "1205": {
      "Tags": [],
      "id": 1205,
      "needStar": 15,
      "reward": "{\"0\": {\"type\": 0, \"id\": 1, \"count\": 135000, \"civil\": 0, \"level\": 0, \"star\": 0}, \"1\": {\"type\": 0, \"id\": 5, \"count\": 27000, \"civil\": 0, \"level\": 0, \"star\": 0}, \"2\": {\"type\": 0, \"id\": 6, \"count\": 125, \"civil\": 0, \"level\": 0, \"star\": 0}}",
      "sort": 5,
      "type": 3
    },
    "1206": {
      "Tags": [],
      "id": 1206,
      "needStar": 18,
      "reward": "{\"0\": {\"type\": 0, \"id\": 1, \"count\": 135000, \"civil\": 0, \"level\": 0, \"star\": 0}, \"1\": {\"type\": 0, \"id\": 5, \"count\": 27000, \"civil\": 0, \"level\": 0, \"star\": 0}, \"2\": {\"type\": 0, \"id\": 6, \"count\": 125, \"civil\": 0, \"level\": 0, \"star\": 0}}",
      "sort": 6,
      "type": 3
    },
    "1207": {
      "Tags": [],
      "id": 1207,
      "needStar": 21,
      "reward": "{\"0\": {\"type\": 0, \"id\": 1, \"count\": 135000, \"civil\": 0, \"level\": 0, \"star\": 0}, \"1\": {\"type\": 0, \"id\": 5, \"count\": 27000, \"civil\": 0, \"level\": 0, \"star\": 0}, \"2\": {\"type\": 0, \"id\": 6, \"count\": 125, \"civil\": 0, \"level\": 0, \"star\": 0}}",
      "sort": 7,
      "type": 3
    },
    "1208": {
      "Tags": [],
      "id": 1208,
      "needStar": 24,
      "reward": "{\"0\": {\"type\": 0, \"id\": 1, \"count\": 135000, \"civil\": 0, \"level\": 0, \"star\": 0}, \"1\": {\"type\": 0, \"id\": 5, \"count\": 27000, \"civil\": 0, \"level\": 0, \"star\": 0}, \"2\": {\"type\": 0, \"id\": 6, \"count\": 125, \"civil\": 0, \"level\": 0, \"star\": 0}}",
      "sort": 8,
      "type": 3
    },
    "1209": {
      "Tags": [],
      "id": 1209,
      "needStar": 27,
      "reward": "{\"0\": {\"type\": 0, \"id\": 1, \"count\": 135000, \"civil\": 0, \"level\": 0, \"star\": 0}, \"1\": {\"type\": 0, \"id\": 5, \"count\": 27000, \"civil\": 0, \"level\": 0, \"star\": 0}, \"2\": {\"type\": 0, \"id\": 6, \"count\": 125, \"civil\": 0, \"level\": 0, \"star\": 0}}",
      "sort": 9,
      "type": 3
    },
    "1210": {
      "Tags": [],
      "id": 1210,
      "needStar": 30,
      "reward": "{\"0\": {\"type\": 0, \"id\": 1, \"count\": 135000, \"civil\": 0, \"level\": 0, \"star\": 0}, \"1\": {\"type\": 0, \"id\": 5, \"count\": 27000, \"civil\": 0, \"level\": 0, \"star\": 0}, \"2\": {\"type\": 0, \"id\": 6, \"count\": 125, \"civil\": 0, \"level\": 0, \"star\": 0}}",
      "sort": 10,
      "type": 3
    },
    "1211": {
      "Tags": [],
      "id": 1211,
      "needStar": 33,
      "reward": "{\"0\": {\"type\": 0, \"id\": 1, \"count\": 135000, \"civil\": 0, \"level\": 0, \"star\": 0}, \"1\": {\"type\": 0, \"id\": 5, \"count\": 27000, \"civil\": 0, \"level\": 0, \"star\": 0}, \"2\": {\"type\": 0, \"id\": 6, \"count\": 125, \"civil\": 0, \"level\": 0, \"star\": 0}}",
      "sort": 11,
      "type": 3
    },
    "1212": {
      "Tags": [],
      "id": 1212,
      "needStar": 36,
      "reward": "{\"0\": {\"type\": 0, \"id\": 1, \"count\": 135000, \"civil\": 0, \"level\": 0, \"star\": 0}, \"1\": {\"type\": 0, \"id\": 5, \"count\": 27000, \"civil\": 0, \"level\": 0, \"star\": 0}, \"2\": {\"type\": 0, \"id\": 6, \"count\": 125, \"civil\": 0, \"level\": 0, \"star\": 0}}",
      "sort": 12,
      "type": 3
    }
  }
}