{
  "WarInstanceConfigs": {
    "1": {
      "Tags": [],
      "funcId": 111,
      "icon": [],
      "id": 1,
      "map": [
        1000,
        1001,
        1002,
        1003,
        1004,
        1005
      ],
      "name": 69065
    },
    "2": {
      "Tags": [],
      "funcId": 112,
      "icon": [],
      "id": 2,
      "map": [
        2000,
        2001,
        2002,
        2003,
        2004,
        2005
      ],
      "name": 69066
    },
    "3": {
      "Tags": [],
      "funcId": 113,
      "icon": [],
      "id": 3,
      "map": [
        3000,
        3001,
        3002,
        3003,
        3004,
        3005
      ],
      "name": 69067
    }
  }
}